{
    "status": "success",
    "code": 200,
    "message": "Your request has been processed successfully.",
    "messageCode": "success.request.processed",
    "data": {
        "links": [
            {
                "rel": "first",
                "href": "http://localhost:8017/api/v2/manager/events?resourceType=repository&page=0&size=20&sort=date,time,desc"
            },
            {
                "rel": "self",
                "href": "http://localhost:8017/api/v2/manager/events?resourceType=repository&page=0&size=20&sort=date,time,desc"
            },
            {
                "rel": "next",
                "href": "http://localhost:8017/api/v2/manager/events?resourceType=repository&page=1&size=20&sort=date,time,desc"
            },
            {
                "rel": "last",
                "href": "http://localhost:8017/api/v2/manager/events?resourceType=repository&page=8&size=20&sort=date,time,desc"
            }
        ],
        "content": [
            {
                "id": 359,
                "technology": "RDepot version: 1.7.3",
                "time": "2020-03-29T10:43:10.123",
                "user": {
                    "id": 4,
                    "name": "Albert Einstein",
                    "login": "einstein"
                },
                "eventType": "update",
                "description": null,
                "resourceId": 2,
                "resourceType": "REPOSITORY",
                "resourceDescription": "R Repository \"testrepo1\"",
                "changedProperties": [
                    {
                        "property": "version",
                        "valueBefore": "30",
                        "valueAfter": "31"
                    }
                ],
                "links": [
                    {
                        "rel": "eventList",
                        "href": "http://localhost:8017/api/v2/manager/events"
                    }
                ]
            },
            {
                "id": 358,
                "technology": "RDepot version: 1.7.3",
                "time": "2020-03-29T10:43:10.117",
                "user": {
                    "id": 4,
                    "name": "Albert Einstein",
                    "login": "einstein"
                },
                "eventType": "update",
                "description": null,
                "resourceId": 2,
                "resourceType": "REPOSITORY",
                "resourceDescription": "R Repository \"testrepo1\"",
                "changedProperties": [
                    {
                        "property": "published",
                        "valueBefore": "",
                        "valueAfter": ""
                    }
                ],
                "links": [
                    {
                        "rel": "eventList",
                        "href": "http://localhost:8017/api/v2/manager/events"
                    }
                ]
            },
            {
                "id": 357,
                "technology": "RDepot version: 1.7.3",
                "time": "2020-03-29T10:43:10.091",
                "user": {
                    "id": 4,
                    "name": "Albert Einstein",
                    "login": "einstein"
                },
                "eventType": "update",
                "description": null,
                "resourceId": 2,
                "resourceType": "REPOSITORY",
                "resourceDescription": "R Repository \"testrepo1\"",
                "changedProperties": [
                    {
                        "property": "version",
                        "valueBefore": "29",
                        "valueAfter": "30"
                    }
                ],
                "links": [
                    {
                        "rel": "eventList",
                        "href": "http://localhost:8017/api/v2/manager/events"
                    }
                ]
            },
            {
                "id": 356,
                "technology": "RDepot version: 1.7.3",
                "time": "2020-03-29T10:43:05.331",
                "user": {
                    "id": 4,
                    "name": "Albert Einstein",
                    "login": "einstein"
                },
                "eventType": "update",
                "description": null,
                "resourceId": 2,
                "resourceType": "REPOSITORY",
                "resourceDescription": "R Repository \"testrepo1\"",
                "changedProperties": [
                    {
                        "property": "version",
                        "valueBefore": "28",
                        "valueAfter": "29"
                    }
                ],
                "links": [
                    {
                        "rel": "eventList",
                        "href": "http://localhost:8017/api/v2/manager/events"
                    }
                ]
            },
            {
                "id": 355,
                "technology": "RDepot version: 1.7.3",
                "time": "2020-03-29T10:43:05.321",
                "user": {
                    "id": 4,
                    "name": "Albert Einstein",
                    "login": "einstein"
                },
                "eventType": "update",
                "description": null,
                "resourceId": 2,
                "resourceType": "REPOSITORY",
                "resourceDescription": "R Repository \"testrepo1\"",
                "changedProperties": [
                    {
                        "property": "published",
                        "valueBefore": "",
                        "valueAfter": ""
                    }
                ],
                "links": [
                    {
                        "rel": "eventList",
                        "href": "http://localhost:8017/api/v2/manager/events"
                    }
                ]
            },
            {
                "id": 354,
                "technology": "RDepot version: 1.7.3",
                "time": "2020-03-29T10:43:05.272",
                "user": {
                    "id": 4,
                    "name": "Albert Einstein",
                    "login": "einstein"
                },
                "eventType": "update",
                "description": null,
                "resourceId": 2,
                "resourceType": "REPOSITORY",
                "resourceDescription": "R Repository \"testrepo1\"",
                "changedProperties": [
                    {
                        "property": "version",
                        "valueBefore": "27",
                        "valueAfter": "28"
                    }
                ],
                "links": [
                    {
                        "rel": "eventList",
                        "href": "http://localhost:8017/api/v2/manager/events"
                    }
                ]
            },
            {
                "id": 353,
                "technology": "RDepot version: 1.7.3",
                "time": "2020-03-28T20:14:45.738",
                "user": {
                    "id": 6,
                    "name": "Galileo Galilei",
                    "login": "galieleo"
                },
                "eventType": "update",
                "description": null,
                "resourceId": 5,
                "resourceType": "REPOSITORY",
                "resourceDescription": "R Repository \"testrepo4\"",
                "changedProperties": [
                    {
                        "property": "submitted",
                        "valueBefore": "",
                        "valueAfter": "31"
                    }
                ],
                "links": [
                    {
                        "rel": "eventList",
                        "href": "http://localhost:8017/api/v2/manager/events"
                    }
                ]
            },
            {
                "id": 352,
                "technology": "RDepot version: 1.7.3",
                "time": "2020-03-28T20:14:44.965",
                "user": {
                    "id": 6,
                    "name": "Galileo Galilei",
                    "login": "galieleo"
                },
                "eventType": "update",
                "description": null,
                "resourceId": 5,
                "resourceType": "REPOSITORY",
                "resourceDescription": "R Repository \"testrepo4\"",
                "changedProperties": [
                    {
                        "property": "submitted",
                        "valueBefore": "",
                        "valueAfter": "30"
                    }
                ],
                "links": [
                    {
                        "rel": "eventList",
                        "href": "http://localhost:8017/api/v2/manager/events"
                    }
                ]
            },
            {
                "id": 351,
                "technology": "RDepot version: 1.7.3",
                "time": "2020-03-28T20:14:19.412",
                "user": {
                    "id": 4,
                    "name": "Albert Einstein",
                    "login": "einstein"
                },
                "eventType": "delete",
                "description": null,
                "resourceId": 7,
                "resourceType": "REPOSITORY",
                "resourceDescription": "R Repository \"testrepo6\"",
                "changedProperties": [
                    {
                        "property": "deleted",
                        "valueBefore": "",
                        "valueAfter": ""
                    }
                ],
                "links": [
                    {
                        "rel": "eventList",
                        "href": "http://localhost:8017/api/v2/manager/events"
                    }
                ]
            },
            {
                "id": 350,
                "technology": "RDepot version: 1.7.3",
                "time": "2020-03-28T20:14:17.895",
                "user": {
                    "id": 4,
                    "name": "Albert Einstein",
                    "login": "einstein"
                },
                "eventType": "update",
                "description": null,
                "resourceId": 7,
                "resourceType": "REPOSITORY",
                "resourceDescription": "R Repository \"testrepo6\"",
                "changedProperties": [
                    {
                        "property": "version",
                        "valueBefore": "5",
                        "valueAfter": "6"
                    }
                ],
                "links": [
                    {
                        "rel": "eventList",
                        "href": "http://localhost:8017/api/v2/manager/events"
                    }
                ]
            },
            {
                "id": 349,
                "technology": "RDepot version: 1.7.3",
                "time": "2020-03-28T20:14:14.281",
                "user": {
                    "id": 4,
                    "name": "Albert Einstein",
                    "login": "einstein"
                },
                "eventType": "update",
                "description": null,
                "resourceId": 7,
                "resourceType": "REPOSITORY",
                "resourceDescription": "R Repository \"testrepo6\"",
                "changedProperties": [
                    {
                        "property": "version",
                        "valueBefore": "4",
                        "valueAfter": "5"
                    }
                ],
                "links": [
                    {
                        "rel": "eventList",
                        "href": "http://localhost:8017/api/v2/manager/events"
                    }
                ]
            },
            {
                "id": 348,
                "technology": "RDepot version: 1.7.3",
                "time": "2020-03-28T20:14:14.278",
                "user": {
                    "id": 4,
                    "name": "Albert Einstein",
                    "login": "einstein"
                },
                "eventType": "update",
                "description": null,
                "resourceId": 7,
                "resourceType": "REPOSITORY",
                "resourceDescription": "R Repository \"testrepo6\"",
                "changedProperties": [
                    {
                        "property": "published",
                        "valueBefore": "true",
                        "valueAfter": "false"
                    }
                ],
                "links": [
                    {
                        "rel": "eventList",
                        "href": "http://localhost:8017/api/v2/manager/events"
                    }
                ]
            },
            {
                "id": 347,
                "technology": "RDepot version: 1.7.3",
                "time": "2020-03-28T20:14:10.689",
                "user": {
                    "id": 4,
                    "name": "Albert Einstein",
                    "login": "einstein"
                },
                "eventType": "update",
                "description": null,
                "resourceId": 7,
                "resourceType": "REPOSITORY",
                "resourceDescription": "R Repository \"testrepo6\"",
                "changedProperties": [
                    {
                        "property": "version",
                        "valueBefore": "3",
                        "valueAfter": "4"
                    }
                ],
                "links": [
                    {
                        "rel": "eventList",
                        "href": "http://localhost:8017/api/v2/manager/events"
                    }
                ]
            },
            {
                "id": 346,
                "technology": "RDepot version: 1.7.3",
                "time": "2020-03-28T20:14:10.687",
                "user": {
                    "id": 4,
                    "name": "Albert Einstein",
                    "login": "einstein"
                },
                "eventType": "update",
                "description": null,
                "resourceId": 7,
                "resourceType": "REPOSITORY",
                "resourceDescription": "R Repository \"testrepo6\"",
                "changedProperties": [
                    {
                        "property": "published",
                        "valueBefore": "",
                        "valueAfter": ""
                    }
                ],
                "links": [
                    {
                        "rel": "eventList",
                        "href": "http://localhost:8017/api/v2/manager/events"
                    }
                ]
            },
            {
                "id": 345,
                "technology": "RDepot version: 1.7.3",
                "time": "2020-03-28T20:14:06.622",
                "user": {
                    "id": 4,
                    "name": "Albert Einstein",
                    "login": "einstein"
                },
                "eventType": "update",
                "description": null,
                "resourceId": 7,
                "resourceType": "REPOSITORY",
                "resourceDescription": "R Repository \"testrepo6\"",
                "changedProperties": [
                    {
                        "property": "added",
                        "valueBefore": "",
                        "valueAfter": "29"
                    }
                ],
                "links": [
                    {
                        "rel": "eventList",
                        "href": "http://localhost:8017/api/v2/manager/events"
                    }
                ]
            },
            {
                "id": 344,
                "technology": "RDepot version: 1.7.3",
                "time": "2020-03-28T20:14:06.618",
                "user": {
                    "id": 4,
                    "name": "Albert Einstein",
                    "login": "einstein"
                },
                "eventType": "update",
                "description": null,
                "resourceId": 7,
                "resourceType": "REPOSITORY",
                "resourceDescription": "R Repository \"testrepo6\"",
                "changedProperties": [
                    {
                        "property": "version",
                        "valueBefore": "2",
                        "valueAfter": "3"
                    }
                ],
                "links": [
                    {
                        "rel": "eventList",
                        "href": "http://localhost:8017/api/v2/manager/events"
                    }
                ]
            },
            {
                "id": 343,
                "technology": "RDepot version: 1.7.3",
                "time": "2020-03-28T20:14:06.616",
                "user": {
                    "id": 4,
                    "name": "Albert Einstein",
                    "login": "einstein"
                },
                "eventType": "update",
                "description": null,
                "resourceId": 7,
                "resourceType": "REPOSITORY",
                "resourceDescription": "R Repository \"testrepo6\"",
                "changedProperties": [
                    {
                        "property": "version",
                        "valueBefore": "1",
                        "valueAfter": "2"
                    }
                ],
                "links": [
                    {
                        "rel": "eventList",
                        "href": "http://localhost:8017/api/v2/manager/events"
                    }
                ]
            },
            {
                "id": 342,
                "technology": "RDepot version: 1.7.3",
                "time": "2020-03-28T20:14:06.604",
                "user": {
                    "id": 4,
                    "name": "Albert Einstein",
                    "login": "einstein"
                },
                "eventType": "update",
                "description": null,
                "resourceId": 7,
                "resourceType": "REPOSITORY",
                "resourceDescription": "R Repository \"testrepo6\"",
                "changedProperties": [
                    {
                        "property": "version",
                        "valueBefore": "0",
                        "valueAfter": "1"
                    }
                ],
                "links": [
                    {
                        "rel": "eventList",
                        "href": "http://localhost:8017/api/v2/manager/events"
                    }
                ]
            },
            {
                "id": 341,
                "technology": "RDepot version: 1.7.3",
                "time": "2020-03-28T20:14:06.588",
                "user": {
                    "id": 4,
                    "name": "Albert Einstein",
                    "login": "einstein"
                },
                "eventType": "update",
                "description": null,
                "resourceId": 7,
                "resourceType": "REPOSITORY",
                "resourceDescription": "R Repository \"testrepo6\"",
                "changedProperties": [
                    {
                        "property": "submitted",
                        "valueBefore": "",
                        "valueAfter": "29"
                    }
                ],
                "links": [
                    {
                        "rel": "eventList",
                        "href": "http://localhost:8017/api/v2/manager/events"
                    }
                ]
            },
            {
                "id": 340,
                "technology": "RDepot version: 1.7.3",
                "time": "2020-03-28T20:13:30.795",
                "user": {
                    "id": 4,
                    "name": "Albert Einstein",
                    "login": "einstein"
                },
                "eventType": "delete",
                "description": null,
                "resourceId": 6,
                "resourceType": "REPOSITORY",
                "resourceDescription": "R Repository \"testrepo5\"",
                "changedProperties": [
                    {
                        "property": "deleted",
                        "valueBefore": "",
                        "valueAfter": ""
                    }
                ],
                "links": [
                    {
                        "rel": "eventList",
                        "href": "http://localhost:8017/api/v2/manager/events"
                    }
                ]
            }
        ],
        "page": {
            "size": 20,
            "totalElements": 176,
            "totalPages": 9,
            "number": 0
        }
    }
}