{
    "status": "success",
    "code": 200,
    "message": "Your request has been processed successfully.",
    "messageCode": "success.request.processed",
    "data": {
        "links": [
            {
                "rel": "first",
                "href": "http://localhost:8017/api/v2/manager/events?resourceId=2&page=0&size=20&sort=date,time,desc"
            },
            {
                "rel": "self",
                "href": "http://localhost:8017/api/v2/manager/events?resourceId=2&page=0&size=20&sort=date,time,desc"
            },
            {
                "rel": "next",
                "href": "http://localhost:8017/api/v2/manager/events?resourceId=2&page=1&size=20&sort=date,time,desc"
            },
            {
                "rel": "last",
                "href": "http://localhost:8017/api/v2/manager/events?resourceId=2&page=3&size=20&sort=date,time,desc"
            }
        ],
        "content": [
            {
                "id": 359,
                "technology": "RDepot version: 1.7.0",
                "time": "2020-03-29T10:43:10.123",
                "user": {
                    "id": 4,
                    "name": "Albert Einstein",
                    "login": "einstein"
                },
                "eventType": "update",
                "description": null,
                "resourceId": 2,
                "resourceType": "REPOSITORY",
                "resourceDescription": "R Repository \"testrepo1\"",
                "changedProperties": [
                    {
                        "property": "version",
                        "valueBefore": "30",
                        "valueAfter": "31"
                    }
                ],
                "links": [
                    {
                        "rel": "eventList",
                        "href": "http://localhost:8017/api/v2/manager/events"
                    }
                ]
            },
            {
                "id": 358,
                "technology": "RDepot version: 1.7.0",
                "time": "2020-03-29T10:43:10.117",
                "user": {
                    "id": 4,
                    "name": "Albert Einstein",
                    "login": "einstein"
                },
                "eventType": "update",
                "description": null,
                "resourceId": 2,
                "resourceType": "REPOSITORY",
                "resourceDescription": "R Repository \"testrepo1\"",
                "changedProperties": [
                    {
                        "property": "published",
                        "valueBefore": "",
                        "valueAfter": ""
                    }
                ],
                "links": [
                    {
                        "rel": "eventList",
                        "href": "http://localhost:8017/api/v2/manager/events"
                    }
                ]
            },
            {
                "id": 357,
                "technology": "RDepot version: 1.7.0",
                "time": "2020-03-29T10:43:10.091",
                "user": {
                    "id": 4,
                    "name": "Albert Einstein",
                    "login": "einstein"
                },
                "eventType": "update",
                "description": null,
                "resourceId": 2,
                "resourceType": "REPOSITORY",
                "resourceDescription": "R Repository \"testrepo1\"",
                "changedProperties": [
                    {
                        "property": "version",
                        "valueBefore": "29",
                        "valueAfter": "30"
                    }
                ],
                "links": [
                    {
                        "rel": "eventList",
                        "href": "http://localhost:8017/api/v2/manager/events"
                    }
                ]
            },
            {
                "id": 356,
                "technology": "RDepot version: 1.7.0",
                "time": "2020-03-29T10:43:05.331",
                "user": {
                    "id": 4,
                    "name": "Albert Einstein",
                    "login": "einstein"
                },
                "eventType": "update",
                "description": null,
                "resourceId": 2,
                "resourceType": "REPOSITORY",
                "resourceDescription": "R Repository \"testrepo1\"",
                "changedProperties": [
                    {
                        "property": "version",
                        "valueBefore": "28",
                        "valueAfter": "29"
                    }
                ],
                "links": [
                    {
                        "rel": "eventList",
                        "href": "http://localhost:8017/api/v2/manager/events"
                    }
                ]
            },
            {
                "id": 355,
                "technology": "RDepot version: 1.7.0",
                "time": "2020-03-29T10:43:05.321",
                "user": {
                    "id": 4,
                    "name": "Albert Einstein",
                    "login": "einstein"
                },
                "eventType": "update",
                "description": null,
                "resourceId": 2,
                "resourceType": "REPOSITORY",
                "resourceDescription": "R Repository \"testrepo1\"",
                "changedProperties": [
                    {
                        "property": "published",
                        "valueBefore": "",
                        "valueAfter": ""
                    }
                ],
                "links": [
                    {
                        "rel": "eventList",
                        "href": "http://localhost:8017/api/v2/manager/events"
                    }
                ]
            },
            {
                "id": 354,
                "technology": "RDepot version: 1.7.0",
                "time": "2020-03-29T10:43:05.272",
                "user": {
                    "id": 4,
                    "name": "Albert Einstein",
                    "login": "einstein"
                },
                "eventType": "update",
                "description": null,
                "resourceId": 2,
                "resourceType": "REPOSITORY",
                "resourceDescription": "R Repository \"testrepo1\"",
                "changedProperties": [
                    {
                        "property": "version",
                        "valueBefore": "27",
                        "valueAfter": "28"
                    }
                ],
                "links": [
                    {
                        "rel": "eventList",
                        "href": "http://localhost:8017/api/v2/manager/events"
                    }
                ]
            },
            {
                "id": 319,
                "technology": "RDepot version: 1.7.0",
                "time": "2020-03-28T20:10:08.533",
                "user": {
                    "id": 5,
                    "name": "Nikola Tesla",
                    "login": "tesla"
                },
                "eventType": "update",
                "description": null,
                "resourceId": 2,
                "resourceType": "REPOSITORY",
                "resourceDescription": "R Repository \"testrepo1\"",
                "changedProperties": [
                    {
                        "property": "version",
                        "valueBefore": "26",
                        "valueAfter": "27"
                    }
                ],
                "links": [
                    {
                        "rel": "eventList",
                        "href": "http://localhost:8017/api/v2/manager/events"
                    }
                ]
            },
            {
                "id": 318,
                "technology": "RDepot version: 1.7.0",
                "time": "2020-03-28T20:10:08.531",
                "user": {
                    "id": 5,
                    "name": "Nikola Tesla",
                    "login": "tesla"
                },
                "eventType": "update",
                "description": null,
                "resourceId": 2,
                "resourceType": "REPOSITORY",
                "resourceDescription": "R Repository \"testrepo1\"",
                "changedProperties": [
                    {
                        "property": "published",
                        "valueBefore": "",
                        "valueAfter": ""
                    }
                ],
                "links": [
                    {
                        "rel": "eventList",
                        "href": "http://localhost:8017/api/v2/manager/events"
                    }
                ]
            },
            {
                "id": 317,
                "technology": "RDepot version: 1.7.0",
                "time": "2020-03-28T20:10:08.519",
                "user": {
                    "id": 5,
                    "name": "Nikola Tesla",
                    "login": "tesla"
                },
                "eventType": "update",
                "description": null,
                "resourceId": 2,
                "resourceType": "REPOSITORY",
                "resourceDescription": "R Repository \"testrepo1\"",
                "changedProperties": [
                    {
                        "property": "version",
                        "valueBefore": "25",
                        "valueAfter": "26"
                    }
                ],
                "links": [
                    {
                        "rel": "eventList",
                        "href": "http://localhost:8017/api/v2/manager/events"
                    }
                ]
            },
            {
                "id": 303,
                "technology": "RDepot version: 1.7.0",
                "time": "2020-03-28T20:08:48.109",
                "user": {
                    "id": 5,
                    "name": "Nikola Tesla",
                    "login": "tesla"
                },
                "eventType": "update",
                "description": null,
                "resourceId": 2,
                "resourceType": "REPOSITORY",
                "resourceDescription": "R Repository \"testrepo1\"",
                "changedProperties": [
                    {
                        "property": "version",
                        "valueBefore": "24",
                        "valueAfter": "25"
                    }
                ],
                "links": [
                    {
                        "rel": "eventList",
                        "href": "http://localhost:8017/api/v2/manager/events"
                    }
                ]
            },
            {
                "id": 302,
                "technology": "RDepot version: 1.7.0",
                "time": "2020-03-28T20:08:48.105",
                "user": {
                    "id": 5,
                    "name": "Nikola Tesla",
                    "login": "tesla"
                },
                "eventType": "update",
                "description": null,
                "resourceId": 2,
                "resourceType": "REPOSITORY",
                "resourceDescription": "R Repository \"testrepo1\"",
                "changedProperties": [
                    {
                        "property": "published",
                        "valueBefore": "",
                        "valueAfter": ""
                    }
                ],
                "links": [
                    {
                        "rel": "eventList",
                        "href": "http://localhost:8017/api/v2/manager/events"
                    }
                ]
            },
            {
                "id": 296,
                "technology": "RDepot version: 1.7.0",
                "time": "2020-03-28T20:08:23.569",
                "user": {
                    "id": 5,
                    "name": "Nikola Tesla",
                    "login": "tesla"
                },
                "eventType": "update",
                "description": null,
                "resourceId": 2,
                "resourceType": "REPOSITORY",
                "resourceDescription": "R Repository \"testrepo1\"",
                "changedProperties": [
                    {
                        "property": "added",
                        "valueBefore": "",
                        "valueAfter": "21"
                    }
                ],
                "links": [
                    {
                        "rel": "eventList",
                        "href": "http://localhost:8017/api/v2/manager/events"
                    }
                ]
            },
            {
                "id": 295,
                "technology": "RDepot version: 1.7.0",
                "time": "2020-03-28T20:08:23.565",
                "user": {
                    "id": 5,
                    "name": "Nikola Tesla",
                    "login": "tesla"
                },
                "eventType": "update",
                "description": null,
                "resourceId": 2,
                "resourceType": "REPOSITORY",
                "resourceDescription": "R Repository \"testrepo1\"",
                "changedProperties": [
                    {
                        "property": "version",
                        "valueBefore": "23",
                        "valueAfter": "24"
                    }
                ],
                "links": [
                    {
                        "rel": "eventList",
                        "href": "http://localhost:8017/api/v2/manager/events"
                    }
                ]
            },
            {
                "id": 294,
                "technology": "RDepot version: 1.7.0",
                "time": "2020-03-28T20:08:23.562",
                "user": {
                    "id": 5,
                    "name": "Nikola Tesla",
                    "login": "tesla"
                },
                "eventType": "update",
                "description": null,
                "resourceId": 2,
                "resourceType": "REPOSITORY",
                "resourceDescription": "R Repository \"testrepo1\"",
                "changedProperties": [
                    {
                        "property": "version",
                        "valueBefore": "22",
                        "valueAfter": "23"
                    }
                ],
                "links": [
                    {
                        "rel": "eventList",
                        "href": "http://localhost:8017/api/v2/manager/events"
                    }
                ]
            },
            {
                "id": 293,
                "technology": "RDepot version: 1.7.0",
                "time": "2020-03-28T20:08:23.549",
                "user": {
                    "id": 5,
                    "name": "Nikola Tesla",
                    "login": "tesla"
                },
                "eventType": "update",
                "description": null,
                "resourceId": 2,
                "resourceType": "REPOSITORY",
                "resourceDescription": "R Repository \"testrepo1\"",
                "changedProperties": [
                    {
                        "property": "version",
                        "valueBefore": "21",
                        "valueAfter": "22"
                    }
                ],
                "links": [
                    {
                        "rel": "eventList",
                        "href": "http://localhost:8017/api/v2/manager/events"
                    }
                ]
            },
            {
                "id": 292,
                "technology": "RDepot version: 1.7.0",
                "time": "2020-03-28T20:08:23.543",
                "user": {
                    "id": 5,
                    "name": "Nikola Tesla",
                    "login": "tesla"
                },
                "eventType": "update",
                "description": null,
                "resourceId": 2,
                "resourceType": "REPOSITORY",
                "resourceDescription": "R Repository \"testrepo1\"",
                "changedProperties": [
                    {
                        "property": "version",
                        "valueBefore": "20",
                        "valueAfter": "21"
                    }
                ],
                "links": [
                    {
                        "rel": "eventList",
                        "href": "http://localhost:8017/api/v2/manager/events"
                    }
                ]
            },
            {
                "id": 291,
                "technology": "RDepot version: 1.7.0",
                "time": "2020-03-28T20:08:18.299",
                "user": {
                    "id": 5,
                    "name": "Nikola Tesla",
                    "login": "tesla"
                },
                "eventType": "update",
                "description": null,
                "resourceId": 2,
                "resourceType": "REPOSITORY",
                "resourceDescription": "R Repository \"testrepo1\"",
                "changedProperties": [
                    {
                        "property": "added",
                        "valueBefore": "",
                        "valueAfter": "18"
                    }
                ],
                "links": [
                    {
                        "rel": "eventList",
                        "href": "http://localhost:8017/api/v2/manager/events"
                    }
                ]
            },
            {
                "id": 290,
                "technology": "RDepot version: 1.7.0",
                "time": "2020-03-28T20:08:18.296",
                "user": {
                    "id": 5,
                    "name": "Nikola Tesla",
                    "login": "tesla"
                },
                "eventType": "update",
                "description": null,
                "resourceId": 2,
                "resourceType": "REPOSITORY",
                "resourceDescription": "R Repository \"testrepo1\"",
                "changedProperties": [
                    {
                        "property": "version",
                        "valueBefore": "19",
                        "valueAfter": "20"
                    }
                ],
                "links": [
                    {
                        "rel": "eventList",
                        "href": "http://localhost:8017/api/v2/manager/events"
                    }
                ]
            },
            {
                "id": 289,
                "technology": "RDepot version: 1.7.0",
                "time": "2020-03-28T20:08:18.286",
                "user": {
                    "id": 5,
                    "name": "Nikola Tesla",
                    "login": "tesla"
                },
                "eventType": "update",
                "description": null,
                "resourceId": 2,
                "resourceType": "REPOSITORY",
                "resourceDescription": "R Repository \"testrepo1\"",
                "changedProperties": [
                    {
                        "property": "version",
                        "valueBefore": "18",
                        "valueAfter": "19"
                    }
                ],
                "links": [
                    {
                        "rel": "eventList",
                        "href": "http://localhost:8017/api/v2/manager/events"
                    }
                ]
            },
            {
                "id": 288,
                "technology": "RDepot version: 1.7.0",
                "time": "2020-03-28T20:08:18.268",
                "user": {
                    "id": 5,
                    "name": "Nikola Tesla",
                    "login": "tesla"
                },
                "eventType": "update",
                "description": null,
                "resourceId": 2,
                "resourceType": "REPOSITORY",
                "resourceDescription": "R Repository \"testrepo1\"",
                "changedProperties": [
                    {
                        "property": "version",
                        "valueBefore": "17",
                        "valueAfter": "18"
                    }
                ],
                "links": [
                    {
                        "rel": "eventList",
                        "href": "http://localhost:8017/api/v2/manager/events"
                    }
                ]
            }
        ],
        "page": {
            "size": 20,
            "totalElements": 63,
            "totalPages": 4,
            "number": 0
        }
    }
}