{
    "status": "success",
    "code": 200,
    "message": "Your request has been processed successfully.",
    "messageCode": "success.request.processed",
    "data": {
        "links": [
            {
                "rel": "first",
                "href": "http://localhost:8017/api/v2/manager/events?eventType=update&page=0&size=20&sort=date,time,desc"
            },
            {
                "rel": "self",
                "href": "http://localhost:8017/api/v2/manager/events?eventType=update&page=0&size=20&sort=date,time,desc"
            },
            {
                "rel": "next",
                "href": "http://localhost:8017/api/v2/manager/events?eventType=update&page=1&size=20&sort=date,time,desc"
            },
            {
                "rel": "last",
                "href": "http://localhost:8017/api/v2/manager/events?eventType=update&page=13&size=20&sort=date,time,desc"
            }
        ],
        "content": [
            {
                "id": 78,
                "technology": "RDepot version: 1.7.5",
                "time": "2020-08-25T12:35:38.788",
                "user": {
                    "id": 8,
                    "name": "Local Admin User",
                    "login": "admin"
                },
                "eventType": "update",
                "description": null,
                "resourceId": 10,
                "resourceType": "USER",
                "resourceDescription": "User (id: 10, login: \"tarski\", email: \"tarski@localhost\", role: \"user\")",
                "changedProperties": [
                    {
                        "property": "last logged in",
                        "valueBefore": "null",
                        "valueAfter": "Tue Aug 25 12:35:38 GMT 2020"
                    }
                ],
                "links": [
                    {
                        "rel": "eventList",
                        "href": "http://localhost:8017/api/v2/manager/events"
                    }
                ]
            },
            {
                "id": 76,
                "technology": "RDepot version: 1.7.5",
                "time": "2020-08-20T09:59:21.132",
                "user": {
                    "id": 4,
                    "name": "Albert Einstein",
                    "login": "einstein"
                },
                "eventType": "update",
                "description": null,
                "resourceId": 9,
                "resourceType": "USER",
                "resourceDescription": "User (id: 9, login: \"doe\", email: \"doe@localhost\", role: \"user\")",
                "changedProperties": [
                    {
                        "property": "active",
                        "valueBefore": "true",
                        "valueAfter": "false"
                    }
                ],
                "links": [
                    {
                        "rel": "eventList",
                        "href": "http://localhost:8017/api/v2/manager/events"
                    }
                ]
            },
            {
                "id": 75,
                "technology": "RDepot version: 1.7.5",
                "time": "2020-08-20T09:59:08.9",
                "user": {
                    "id": 8,
                    "name": "Local Admin User",
                    "login": "admin"
                },
                "eventType": "update",
                "description": null,
                "resourceId": 4,
                "resourceType": "USER",
                "resourceDescription": "User (id: 4, login: \"einstein\", email: \"einstein@ldap.forumsys.com\", role: \"admin\")",
                "changedProperties": [
                    {
                        "property": "last logged in",
                        "valueBefore": "2020-03-28 00:00:00.0",
                        "valueAfter": "Thu Aug 20 09:59:08 GMT 2020"
                    }
                ],
                "links": [
                    {
                        "rel": "eventList",
                        "href": "http://localhost:8017/api/v2/manager/events"
                    }
                ]
            },
            {
                "id": 74,
                "technology": "RDepot version: 1.7.5",
                "time": "2020-08-20T09:58:52.09",
                "user": {
                    "id": 8,
                    "name": "Local Admin User",
                    "login": "admin"
                },
                "eventType": "update",
                "description": null,
                "resourceId": 9,
                "resourceType": "USER",
                "resourceDescription": "User (id: 9, login: \"doe\", email: \"doe@localhost\", role: \"user\")",
                "changedProperties": [
                    {
                        "property": "last logged in",
                        "valueBefore": "null",
                        "valueAfter": "Thu Aug 20 09:58:52 GMT 2020"
                    }
                ],
                "links": [
                    {
                        "rel": "eventList",
                        "href": "http://localhost:8017/api/v2/manager/events"
                    }
                ]
            },
            {
                "id": 359,
                "technology": "RDepot version: 1.7.5",
                "time": "2020-03-29T10:43:10.123",
                "user": {
                    "id": 4,
                    "name": "Albert Einstein",
                    "login": "einstein"
                },
                "eventType": "update",
                "description": null,
                "resourceId": 2,
                "resourceType": "REPOSITORY",
                "resourceDescription": "R Repository \"testrepo1\"",
                "changedProperties": [
                    {
                        "property": "version",
                        "valueBefore": "30",
                        "valueAfter": "31"
                    }
                ],
                "links": [
                    {
                        "rel": "eventList",
                        "href": "http://localhost:8017/api/v2/manager/events"
                    }
                ]
            },
            {
                "id": 358,
                "technology": "RDepot version: 1.7.5",
                "time": "2020-03-29T10:43:10.117",
                "user": {
                    "id": 4,
                    "name": "Albert Einstein",
                    "login": "einstein"
                },
                "eventType": "update",
                "description": null,
                "resourceId": 2,
                "resourceType": "REPOSITORY",
                "resourceDescription": "R Repository \"testrepo1\"",
                "changedProperties": [
                    {
                        "property": "published",
                        "valueBefore": "",
                        "valueAfter": ""
                    }
                ],
                "links": [
                    {
                        "rel": "eventList",
                        "href": "http://localhost:8017/api/v2/manager/events"
                    }
                ]
            },
            {
                "id": 357,
                "technology": "RDepot version: 1.7.5",
                "time": "2020-03-29T10:43:10.091",
                "user": {
                    "id": 4,
                    "name": "Albert Einstein",
                    "login": "einstein"
                },
                "eventType": "update",
                "description": null,
                "resourceId": 2,
                "resourceType": "REPOSITORY",
                "resourceDescription": "R Repository \"testrepo1\"",
                "changedProperties": [
                    {
                        "property": "version",
                        "valueBefore": "29",
                        "valueAfter": "30"
                    }
                ],
                "links": [
                    {
                        "rel": "eventList",
                        "href": "http://localhost:8017/api/v2/manager/events"
                    }
                ]
            },
            {
                "id": 178,
                "technology": "RDepot version: 1.7.5",
                "time": "2020-03-29T10:43:10.081",
                "user": {
                    "id": 4,
                    "name": "Albert Einstein",
                    "login": "einstein"
                },
                "eventType": "update",
                "description": null,
                "resourceId": 15,
                "resourceType": "PACKAGE",
                "resourceDescription": "Provides an R interface for the Bureau of Economic Analysis (BEA)",
                "changedProperties": [
                    {
                        "property": "maintainer",
                        "valueBefore": "5",
                        "valueAfter": "6"
                    }
                ],
                "links": [
                    {
                        "rel": "eventList",
                        "href": "http://localhost:8017/api/v2/manager/events"
                    }
                ]
            },
            {
                "id": 356,
                "technology": "RDepot version: 1.7.5",
                "time": "2020-03-29T10:43:05.331",
                "user": {
                    "id": 4,
                    "name": "Albert Einstein",
                    "login": "einstein"
                },
                "eventType": "update",
                "description": null,
                "resourceId": 2,
                "resourceType": "REPOSITORY",
                "resourceDescription": "R Repository \"testrepo1\"",
                "changedProperties": [
                    {
                        "property": "version",
                        "valueBefore": "28",
                        "valueAfter": "29"
                    }
                ],
                "links": [
                    {
                        "rel": "eventList",
                        "href": "http://localhost:8017/api/v2/manager/events"
                    }
                ]
            },
            {
                "id": 355,
                "technology": "RDepot version: 1.7.5",
                "time": "2020-03-29T10:43:05.321",
                "user": {
                    "id": 4,
                    "name": "Albert Einstein",
                    "login": "einstein"
                },
                "eventType": "update",
                "description": null,
                "resourceId": 2,
                "resourceType": "REPOSITORY",
                "resourceDescription": "R Repository \"testrepo1\"",
                "changedProperties": [
                    {
                        "property": "published",
                        "valueBefore": "",
                        "valueAfter": ""
                    }
                ],
                "links": [
                    {
                        "rel": "eventList",
                        "href": "http://localhost:8017/api/v2/manager/events"
                    }
                ]
            },
            {
                "id": 354,
                "technology": "RDepot version: 1.7.5",
                "time": "2020-03-29T10:43:05.272",
                "user": {
                    "id": 4,
                    "name": "Albert Einstein",
                    "login": "einstein"
                },
                "eventType": "update",
                "description": null,
                "resourceId": 2,
                "resourceType": "REPOSITORY",
                "resourceDescription": "R Repository \"testrepo1\"",
                "changedProperties": [
                    {
                        "property": "version",
                        "valueBefore": "27",
                        "valueAfter": "28"
                    }
                ],
                "links": [
                    {
                        "rel": "eventList",
                        "href": "http://localhost:8017/api/v2/manager/events"
                    }
                ]
            },
            {
                "id": 177,
                "technology": "RDepot version: 1.7.5",
                "time": "2020-03-29T10:43:05.243",
                "user": {
                    "id": 4,
                    "name": "Albert Einstein",
                    "login": "einstein"
                },
                "eventType": "update",
                "description": null,
                "resourceId": 15,
                "resourceType": "PACKAGE",
                "resourceDescription": "Provides an R interface for the Bureau of Economic Analysis (BEA)",
                "changedProperties": [
                    {
                        "property": "maintainer",
                        "valueBefore": "6",
                        "valueAfter": "5"
                    }
                ],
                "links": [
                    {
                        "rel": "eventList",
                        "href": "http://localhost:8017/api/v2/manager/events"
                    }
                ]
            },
            {
                "id": 72,
                "technology": "RDepot version: 1.7.5",
                "time": "2020-03-29T10:42:45.4",
                "user": {
                    "id": 8,
                    "name": "Local Admin User",
                    "login": "admin"
                },
                "eventType": "update",
                "description": null,
                "resourceId": 5,
                "resourceType": "USER",
                "resourceDescription": "User (id: 5, login: \"tesla\", email: \"tesla@ldap.forumsys.com\", role: \"repositorymaintainer\")",
                "changedProperties": [
                    {
                        "property": "last logged in",
                        "valueBefore": "2020-03-28 00:00:00.0",
                        "valueAfter": "Sun Mar 29 10:42:45 UTC 2020"
                    }
                ],
                "links": [
                    {
                        "rel": "eventList",
                        "href": "http://localhost:8017/api/v2/manager/events"
                    }
                ]
            },
            {
                "id": 353,
                "technology": "RDepot version: 1.7.5",
                "time": "2020-03-28T20:14:45.738",
                "user": {
                    "id": 6,
                    "name": "Galileo Galilei",
                    "login": "galieleo"
                },
                "eventType": "update",
                "description": null,
                "resourceId": 5,
                "resourceType": "REPOSITORY",
                "resourceDescription": "R Repository \"testrepo4\"",
                "changedProperties": [
                    {
                        "property": "submitted",
                        "valueBefore": "",
                        "valueAfter": "31"
                    }
                ],
                "links": [
                    {
                        "rel": "eventList",
                        "href": "http://localhost:8017/api/v2/manager/events"
                    }
                ]
            },
            {
                "id": 352,
                "technology": "RDepot version: 1.7.5",
                "time": "2020-03-28T20:14:44.965",
                "user": {
                    "id": 6,
                    "name": "Galileo Galilei",
                    "login": "galieleo"
                },
                "eventType": "update",
                "description": null,
                "resourceId": 5,
                "resourceType": "REPOSITORY",
                "resourceDescription": "R Repository \"testrepo4\"",
                "changedProperties": [
                    {
                        "property": "submitted",
                        "valueBefore": "",
                        "valueAfter": "30"
                    }
                ],
                "links": [
                    {
                        "rel": "eventList",
                        "href": "http://localhost:8017/api/v2/manager/events"
                    }
                ]
            },
            {
                "id": 71,
                "technology": "RDepot version: 1.7.5",
                "time": "2020-03-28T20:14:30.998",
                "user": {
                    "id": 8,
                    "name": "Local Admin User",
                    "login": "admin"
                },
                "eventType": "update",
                "description": null,
                "resourceId": 6,
                "resourceType": "USER",
                "resourceDescription": "User (id: 6, login: \"galieleo\", email: \"galieleo@ldap.forumsys.com\", role: \"packagemaintainer\")",
                "changedProperties": [
                    {
                        "property": "last logged in",
                        "valueBefore": "2020-03-28 00:00:00.0",
                        "valueAfter": "Sat Mar 28 20:14:30 UTC 2020"
                    }
                ],
                "links": [
                    {
                        "rel": "eventList",
                        "href": "http://localhost:8017/api/v2/manager/events"
                    }
                ]
            },
            {
                "id": 350,
                "technology": "RDepot version: 1.7.5",
                "time": "2020-03-28T20:14:17.895",
                "user": {
                    "id": 4,
                    "name": "Albert Einstein",
                    "login": "einstein"
                },
                "eventType": "update",
                "description": null,
                "resourceId": 7,
                "resourceType": "REPOSITORY",
                "resourceDescription": "R Repository \"testrepo6\"",
                "changedProperties": [
                    {
                        "property": "version",
                        "valueBefore": "5",
                        "valueAfter": "6"
                    }
                ],
                "links": [
                    {
                        "rel": "eventList",
                        "href": "http://localhost:8017/api/v2/manager/events"
                    }
                ]
            },
            {
                "id": 349,
                "technology": "RDepot version: 1.7.5",
                "time": "2020-03-28T20:14:14.281",
                "user": {
                    "id": 4,
                    "name": "Albert Einstein",
                    "login": "einstein"
                },
                "eventType": "update",
                "description": null,
                "resourceId": 7,
                "resourceType": "REPOSITORY",
                "resourceDescription": "R Repository \"testrepo6\"",
                "changedProperties": [
                    {
                        "property": "version",
                        "valueBefore": "4",
                        "valueAfter": "5"
                    }
                ],
                "links": [
                    {
                        "rel": "eventList",
                        "href": "http://localhost:8017/api/v2/manager/events"
                    }
                ]
            },
            {
                "id": 348,
                "technology": "RDepot version: 1.7.5",
                "time": "2020-03-28T20:14:14.278",
                "user": {
                    "id": 4,
                    "name": "Albert Einstein",
                    "login": "einstein"
                },
                "eventType": "update",
                "description": null,
                "resourceId": 7,
                "resourceType": "REPOSITORY",
                "resourceDescription": "R Repository \"testrepo6\"",
                "changedProperties": [
                    {
                        "property": "published",
                        "valueBefore": "true",
                        "valueAfter": "false"
                    }
                ],
                "links": [
                    {
                        "rel": "eventList",
                        "href": "http://localhost:8017/api/v2/manager/events"
                    }
                ]
            },
            {
                "id": 347,
                "technology": "RDepot version: 1.7.5",
                "time": "2020-03-28T20:14:10.689",
                "user": {
                    "id": 4,
                    "name": "Albert Einstein",
                    "login": "einstein"
                },
                "eventType": "update",
                "description": null,
                "resourceId": 7,
                "resourceType": "REPOSITORY",
                "resourceDescription": "R Repository \"testrepo6\"",
                "changedProperties": [
                    {
                        "property": "version",
                        "valueBefore": "3",
                        "valueAfter": "4"
                    }
                ],
                "links": [
                    {
                        "rel": "eventList",
                        "href": "http://localhost:8017/api/v2/manager/events"
                    }
                ]
            }
        ],
        "page": {
            "size": 20,
            "totalElements": 275,
            "totalPages": 14,
            "number": 0
        }
    }
}