{
    "status": "success",
    "code": 200,
    "message": "Your request has been processed successfully.",
    "messageCode": "success.request.processed",
    "data": {
        "links": [
            {
                "rel": "first",
                "href": "http://localhost:8017/api/v2/manager/events?userId=5&page=0&size=20&sort=date,time,desc"
            },
            {
                "rel": "self",
                "href": "http://localhost:8017/api/v2/manager/events?userId=5&page=0&size=20&sort=date,time,desc"
            },
            {
                "rel": "next",
                "href": "http://localhost:8017/api/v2/manager/events?userId=5&page=1&size=20&sort=date,time,desc"
            },
            {
                "rel": "last",
                "href": "http://localhost:8017/api/v2/manager/events?userId=5&page=3&size=20&sort=date,time,desc"
            }
        ],
        "content": [
            {
                "id": 319,
                "technology": "RDepot version: 1.7.1",
                "time": "2020-03-28T20:10:08.533",
                "user": {
                    "id": 5,
                    "name": "Nikola Tesla",
                    "login": "tesla"
                },
                "eventType": "update",
                "description": null,
                "resourceId": 2,
                "resourceType": "REPOSITORY",
                "resourceDescription": "R Repository \"testrepo1\"",
                "changedProperties": [
                    {
                        "property": "version",
                        "valueBefore": "26",
                        "valueAfter": "27"
                    }
                ],
                "links": [
                    {
                        "rel": "eventList",
                        "href": "http://localhost:8017/api/v2/manager/events"
                    }
                ]
            },
            {
                "id": 318,
                "technology": "RDepot version: 1.7.1",
                "time": "2020-03-28T20:10:08.531",
                "user": {
                    "id": 5,
                    "name": "Nikola Tesla",
                    "login": "tesla"
                },
                "eventType": "update",
                "description": null,
                "resourceId": 2,
                "resourceType": "REPOSITORY",
                "resourceDescription": "R Repository \"testrepo1\"",
                "changedProperties": [
                    {
                        "property": "published",
                        "valueBefore": "",
                        "valueAfter": ""
                    }
                ],
                "links": [
                    {
                        "rel": "eventList",
                        "href": "http://localhost:8017/api/v2/manager/events"
                    }
                ]
            },
            {
                "id": 317,
                "technology": "RDepot version: 1.7.1",
                "time": "2020-03-28T20:10:08.519",
                "user": {
                    "id": 5,
                    "name": "Nikola Tesla",
                    "login": "tesla"
                },
                "eventType": "update",
                "description": null,
                "resourceId": 2,
                "resourceType": "REPOSITORY",
                "resourceDescription": "R Repository \"testrepo1\"",
                "changedProperties": [
                    {
                        "property": "version",
                        "valueBefore": "25",
                        "valueAfter": "26"
                    }
                ],
                "links": [
                    {
                        "rel": "eventList",
                        "href": "http://localhost:8017/api/v2/manager/events"
                    }
                ]
            },
            {
                "id": 46,
                "technology": "RDepot version: 1.7.1",
                "time": "2020-03-28T20:10:08.515",
                "user": {
                    "id": 5,
                    "name": "Nikola Tesla",
                    "login": "tesla"
                },
                "eventType": "delete",
                "description": null,
                "resourceId": 15,
                "resourceType": "SUBMISSION",
                "resourceDescription": "Submission [id: 15, package: \"npordtests 1.1\", author: \"einstein\"]",
                "changedProperties": [
                    {
                        "property": "deleted",
                        "valueBefore": "",
                        "valueAfter": ""
                    }
                ],
                "links": [
                    {
                        "rel": "eventList",
                        "href": "http://localhost:8017/api/v2/manager/events"
                    }
                ]
            },
            {
                "id": 162,
                "technology": "RDepot version: 1.7.1",
                "time": "2020-03-28T20:10:08.508",
                "user": {
                    "id": 5,
                    "name": "Nikola Tesla",
                    "login": "tesla"
                },
                "eventType": "delete",
                "description": null,
                "resourceId": 14,
                "resourceType": "PACKAGE",
                "resourceDescription": "Performs nonparametric tests for equality of location against ordered alternatives.",
                "changedProperties": [
                    {
                        "property": "delete",
                        "valueBefore": "false",
                        "valueAfter": "true"
                    }
                ],
                "links": [
                    {
                        "rel": "eventList",
                        "href": "http://localhost:8017/api/v2/manager/events"
                    }
                ]
            },
            {
                "id": 307,
                "technology": "RDepot version: 1.7.1",
                "time": "2020-03-28T20:08:53.753",
                "user": {
                    "id": 5,
                    "name": "Nikola Tesla",
                    "login": "tesla"
                },
                "eventType": "update",
                "description": null,
                "resourceId": 5,
                "resourceType": "REPOSITORY",
                "resourceDescription": "R Repository \"testrepo4\"",
                "changedProperties": [
                    {
                        "property": "version",
                        "valueBefore": "5",
                        "valueAfter": "6"
                    }
                ],
                "links": [
                    {
                        "rel": "eventList",
                        "href": "http://localhost:8017/api/v2/manager/events"
                    }
                ]
            },
            {
                "id": 306,
                "technology": "RDepot version: 1.7.1",
                "time": "2020-03-28T20:08:53.749",
                "user": {
                    "id": 5,
                    "name": "Nikola Tesla",
                    "login": "tesla"
                },
                "eventType": "update",
                "description": null,
                "resourceId": 5,
                "resourceType": "REPOSITORY",
                "resourceDescription": "R Repository \"testrepo4\"",
                "changedProperties": [
                    {
                        "property": "published",
                        "valueBefore": "true",
                        "valueAfter": "false"
                    }
                ],
                "links": [
                    {
                        "rel": "eventList",
                        "href": "http://localhost:8017/api/v2/manager/events"
                    }
                ]
            },
            {
                "id": 305,
                "technology": "RDepot version: 1.7.1",
                "time": "2020-03-28T20:08:51.745",
                "user": {
                    "id": 5,
                    "name": "Nikola Tesla",
                    "login": "tesla"
                },
                "eventType": "update",
                "description": null,
                "resourceId": 5,
                "resourceType": "REPOSITORY",
                "resourceDescription": "R Repository \"testrepo4\"",
                "changedProperties": [
                    {
                        "property": "version",
                        "valueBefore": "4",
                        "valueAfter": "5"
                    }
                ],
                "links": [
                    {
                        "rel": "eventList",
                        "href": "http://localhost:8017/api/v2/manager/events"
                    }
                ]
            },
            {
                "id": 304,
                "technology": "RDepot version: 1.7.1",
                "time": "2020-03-28T20:08:51.742",
                "user": {
                    "id": 5,
                    "name": "Nikola Tesla",
                    "login": "tesla"
                },
                "eventType": "update",
                "description": null,
                "resourceId": 5,
                "resourceType": "REPOSITORY",
                "resourceDescription": "R Repository \"testrepo4\"",
                "changedProperties": [
                    {
                        "property": "published",
                        "valueBefore": "",
                        "valueAfter": ""
                    }
                ],
                "links": [
                    {
                        "rel": "eventList",
                        "href": "http://localhost:8017/api/v2/manager/events"
                    }
                ]
            },
            {
                "id": 303,
                "technology": "RDepot version: 1.7.1",
                "time": "2020-03-28T20:08:48.109",
                "user": {
                    "id": 5,
                    "name": "Nikola Tesla",
                    "login": "tesla"
                },
                "eventType": "update",
                "description": null,
                "resourceId": 2,
                "resourceType": "REPOSITORY",
                "resourceDescription": "R Repository \"testrepo1\"",
                "changedProperties": [
                    {
                        "property": "version",
                        "valueBefore": "24",
                        "valueAfter": "25"
                    }
                ],
                "links": [
                    {
                        "rel": "eventList",
                        "href": "http://localhost:8017/api/v2/manager/events"
                    }
                ]
            },
            {
                "id": 302,
                "technology": "RDepot version: 1.7.1",
                "time": "2020-03-28T20:08:48.105",
                "user": {
                    "id": 5,
                    "name": "Nikola Tesla",
                    "login": "tesla"
                },
                "eventType": "update",
                "description": null,
                "resourceId": 2,
                "resourceType": "REPOSITORY",
                "resourceDescription": "R Repository \"testrepo1\"",
                "changedProperties": [
                    {
                        "property": "published",
                        "valueBefore": "",
                        "valueAfter": ""
                    }
                ],
                "links": [
                    {
                        "rel": "eventList",
                        "href": "http://localhost:8017/api/v2/manager/events"
                    }
                ]
            },
            {
                "id": 44,
                "technology": "RDepot version: 1.7.1",
                "time": "2020-03-28T20:08:42.886",
                "user": {
                    "id": 5,
                    "name": "Nikola Tesla",
                    "login": "tesla"
                },
                "eventType": "delete",
                "description": null,
                "resourceId": 24,
                "resourceType": "SUBMISSION",
                "resourceDescription": "Submission [id: 24, package: \"Benchmarking 0.10\", author: \"galieleo\"]",
                "changedProperties": [
                    {
                        "property": "deleted",
                        "valueBefore": "",
                        "valueAfter": ""
                    }
                ],
                "links": [
                    {
                        "rel": "eventList",
                        "href": "http://localhost:8017/api/v2/manager/events"
                    }
                ]
            },
            {
                "id": 301,
                "technology": "RDepot version: 1.7.1",
                "time": "2020-03-28T20:08:41.789",
                "user": {
                    "id": 5,
                    "name": "Nikola Tesla",
                    "login": "tesla"
                },
                "eventType": "update",
                "description": null,
                "resourceId": 5,
                "resourceType": "REPOSITORY",
                "resourceDescription": "R Repository \"testrepo4\"",
                "changedProperties": [
                    {
                        "property": "added",
                        "valueBefore": "",
                        "valueAfter": "20"
                    }
                ],
                "links": [
                    {
                        "rel": "eventList",
                        "href": "http://localhost:8017/api/v2/manager/events"
                    }
                ]
            },
            {
                "id": 300,
                "technology": "RDepot version: 1.7.1",
                "time": "2020-03-28T20:08:41.786",
                "user": {
                    "id": 5,
                    "name": "Nikola Tesla",
                    "login": "tesla"
                },
                "eventType": "update",
                "description": null,
                "resourceId": 5,
                "resourceType": "REPOSITORY",
                "resourceDescription": "R Repository \"testrepo4\"",
                "changedProperties": [
                    {
                        "property": "version",
                        "valueBefore": "3",
                        "valueAfter": "4"
                    }
                ],
                "links": [
                    {
                        "rel": "eventList",
                        "href": "http://localhost:8017/api/v2/manager/events"
                    }
                ]
            },
            {
                "id": 299,
                "technology": "RDepot version: 1.7.1",
                "time": "2020-03-28T20:08:41.783",
                "user": {
                    "id": 5,
                    "name": "Nikola Tesla",
                    "login": "tesla"
                },
                "eventType": "update",
                "description": null,
                "resourceId": 5,
                "resourceType": "REPOSITORY",
                "resourceDescription": "R Repository \"testrepo4\"",
                "changedProperties": [
                    {
                        "property": "version",
                        "valueBefore": "2",
                        "valueAfter": "3"
                    }
                ],
                "links": [
                    {
                        "rel": "eventList",
                        "href": "http://localhost:8017/api/v2/manager/events"
                    }
                ]
            },
            {
                "id": 160,
                "technology": "RDepot version: 1.7.1",
                "time": "2020-03-28T20:08:41.776",
                "user": {
                    "id": 5,
                    "name": "Nikola Tesla",
                    "login": "tesla"
                },
                "eventType": "update",
                "description": null,
                "resourceId": 20,
                "resourceType": "PACKAGE",
                "resourceDescription": "Is a collection of models to analyze genome scale codon data using a Bayesian framework. Provides visualization routines and checkpointing for model fittings. Currently published models to analyze gene data for selection on codon",
                "changedProperties": [
                    {
                        "property": "active",
                        "valueBefore": "false",
                        "valueAfter": "true"
                    }
                ],
                "links": [
                    {
                        "rel": "eventList",
                        "href": "http://localhost:8017/api/v2/manager/events"
                    }
                ]
            },
            {
                "id": 298,
                "technology": "RDepot version: 1.7.1",
                "time": "2020-03-28T20:08:41.772",
                "user": {
                    "id": 5,
                    "name": "Nikola Tesla",
                    "login": "tesla"
                },
                "eventType": "update",
                "description": null,
                "resourceId": 5,
                "resourceType": "REPOSITORY",
                "resourceDescription": "R Repository \"testrepo4\"",
                "changedProperties": [
                    {
                        "property": "version",
                        "valueBefore": "1",
                        "valueAfter": "2"
                    }
                ],
                "links": [
                    {
                        "rel": "eventList",
                        "href": "http://localhost:8017/api/v2/manager/events"
                    }
                ]
            },
            {
                "id": 297,
                "technology": "RDepot version: 1.7.1",
                "time": "2020-03-28T20:08:41.767",
                "user": {
                    "id": 5,
                    "name": "Nikola Tesla",
                    "login": "tesla"
                },
                "eventType": "update",
                "description": null,
                "resourceId": 5,
                "resourceType": "REPOSITORY",
                "resourceDescription": "R Repository \"testrepo4\"",
                "changedProperties": [
                    {
                        "property": "version",
                        "valueBefore": "0",
                        "valueAfter": "1"
                    }
                ],
                "links": [
                    {
                        "rel": "eventList",
                        "href": "http://localhost:8017/api/v2/manager/events"
                    }
                ]
            },
            {
                "id": 158,
                "technology": "RDepot version: 1.7.1",
                "time": "2020-03-28T20:08:41.763",
                "user": {
                    "id": 5,
                    "name": "Nikola Tesla",
                    "login": "tesla"
                },
                "eventType": "update",
                "description": null,
                "resourceId": 20,
                "resourceType": "PACKAGE",
                "resourceDescription": "Is a collection of models to analyze genome scale codon data using a Bayesian framework. Provides visualization routines and checkpointing for model fittings. Currently published models to analyze gene data for selection on codon",
                "changedProperties": [
                    {
                        "property": "maintainer",
                        "valueBefore": "5",
                        "valueAfter": "4"
                    }
                ],
                "links": [
                    {
                        "rel": "eventList",
                        "href": "http://localhost:8017/api/v2/manager/events"
                    }
                ]
            },
            {
                "id": 159,
                "technology": "RDepot version: 1.7.1",
                "time": "2020-03-28T20:08:41.753",
                "user": {
                    "id": 5,
                    "name": "Nikola Tesla",
                    "login": "tesla"
                },
                "eventType": "update",
                "description": null,
                "resourceId": 20,
                "resourceType": "PACKAGE",
                "resourceDescription": "Is a collection of models to analyze genome scale codon data using a Bayesian framework. Provides visualization routines and checkpointing for model fittings. Currently published models to analyze gene data for selection on codon",
                "changedProperties": [
                    {
                        "property": "source",
                        "valueBefore": "/opt/rdepot/new/9104202/AnaCoDa_0.1.2.3.tar.gz",
                        "valueAfter": "/opt/rdepot/repositories/5/39437028/AnaCoDa_0.1.2.3.tar.gz"
                    }
                ],
                "links": [
                    {
                        "rel": "eventList",
                        "href": "http://localhost:8017/api/v2/manager/events"
                    }
                ]
            }
        ],
        "page": {
            "size": 20,
            "totalElements": 66,
            "totalPages": 4,
            "number": 0
        }
    }
}