{
    "status": "success",
    "code": 200,
    "message": "Your request has been processed successfully.",
    "messageCode": "success.request.processed",
    "data": {
        "links": [
            {
                "rel": "first",
                "href": "http://localhost:8017/api/v2/manager/events?resurceType=repository&userId=5&eventType=update&resourceId=2&page=0&size=20&sort=date,time,desc"
            },
            {
                "rel": "self",
                "href": "http://localhost:8017/api/v2/manager/events?resurceType=repository&userId=5&eventType=update&resourceId=2&page=0&size=20&sort=date,time,desc"
            },
            {
                "rel": "next",
                "href": "http://localhost:8017/api/v2/manager/events?resurceType=repository&userId=5&eventType=update&resourceId=2&page=1&size=20&sort=date,time,desc"
            },
            {
                "rel": "last",
                "href": "http://localhost:8017/api/v2/manager/events?resurceType=repository&userId=5&eventType=update&resourceId=2&page=1&size=20&sort=date,time,desc"
            }
        ],
        "content": [
            {
                "id": 319,
                "technology": "RDepot version: 1.7.1",
                "time": "2020-03-28T20:10:08.533",
                "user": {
                    "id": 5,
                    "name": "Nikola Tesla",
                    "login": "tesla"
                },
                "eventType": "update",
                "description": null,
                "resourceId": 2,
                "resourceType": "REPOSITORY",
                "resourceDescription": "R Repository \"testrepo1\"",
                "changedProperties": [
                    {
                        "property": "version",
                        "valueBefore": "26",
                        "valueAfter": "27"
                    }
                ],
                "links": [
                    {
                        "rel": "eventList",
                        "href": "http://localhost:8017/api/v2/manager/events"
                    }
                ]
            },
            {
                "id": 318,
                "technology": "RDepot version: 1.7.1",
                "time": "2020-03-28T20:10:08.531",
                "user": {
                    "id": 5,
                    "name": "Nikola Tesla",
                    "login": "tesla"
                },
                "eventType": "update",
                "description": null,
                "resourceId": 2,
                "resourceType": "REPOSITORY",
                "resourceDescription": "R Repository \"testrepo1\"",
                "changedProperties": [
                    {
                        "property": "published",
                        "valueBefore": "",
                        "valueAfter": ""
                    }
                ],
                "links": [
                    {
                        "rel": "eventList",
                        "href": "http://localhost:8017/api/v2/manager/events"
                    }
                ]
            },
            {
                "id": 317,
                "technology": "RDepot version: 1.7.1",
                "time": "2020-03-28T20:10:08.519",
                "user": {
                    "id": 5,
                    "name": "Nikola Tesla",
                    "login": "tesla"
                },
                "eventType": "update",
                "description": null,
                "resourceId": 2,
                "resourceType": "REPOSITORY",
                "resourceDescription": "R Repository \"testrepo1\"",
                "changedProperties": [
                    {
                        "property": "version",
                        "valueBefore": "25",
                        "valueAfter": "26"
                    }
                ],
                "links": [
                    {
                        "rel": "eventList",
                        "href": "http://localhost:8017/api/v2/manager/events"
                    }
                ]
            },
            {
                "id": 303,
                "technology": "RDepot version: 1.7.1",
                "time": "2020-03-28T20:08:48.109",
                "user": {
                    "id": 5,
                    "name": "Nikola Tesla",
                    "login": "tesla"
                },
                "eventType": "update",
                "description": null,
                "resourceId": 2,
                "resourceType": "REPOSITORY",
                "resourceDescription": "R Repository \"testrepo1\"",
                "changedProperties": [
                    {
                        "property": "version",
                        "valueBefore": "24",
                        "valueAfter": "25"
                    }
                ],
                "links": [
                    {
                        "rel": "eventList",
                        "href": "http://localhost:8017/api/v2/manager/events"
                    }
                ]
            },
            {
                "id": 302,
                "technology": "RDepot version: 1.7.1",
                "time": "2020-03-28T20:08:48.105",
                "user": {
                    "id": 5,
                    "name": "Nikola Tesla",
                    "login": "tesla"
                },
                "eventType": "update",
                "description": null,
                "resourceId": 2,
                "resourceType": "REPOSITORY",
                "resourceDescription": "R Repository \"testrepo1\"",
                "changedProperties": [
                    {
                        "property": "published",
                        "valueBefore": "",
                        "valueAfter": ""
                    }
                ],
                "links": [
                    {
                        "rel": "eventList",
                        "href": "http://localhost:8017/api/v2/manager/events"
                    }
                ]
            },
            {
                "id": 296,
                "technology": "RDepot version: 1.7.1",
                "time": "2020-03-28T20:08:23.569",
                "user": {
                    "id": 5,
                    "name": "Nikola Tesla",
                    "login": "tesla"
                },
                "eventType": "update",
                "description": null,
                "resourceId": 2,
                "resourceType": "REPOSITORY",
                "resourceDescription": "R Repository \"testrepo1\"",
                "changedProperties": [
                    {
                        "property": "added",
                        "valueBefore": "",
                        "valueAfter": "21"
                    }
                ],
                "links": [
                    {
                        "rel": "eventList",
                        "href": "http://localhost:8017/api/v2/manager/events"
                    }
                ]
            },
            {
                "id": 295,
                "technology": "RDepot version: 1.7.1",
                "time": "2020-03-28T20:08:23.565",
                "user": {
                    "id": 5,
                    "name": "Nikola Tesla",
                    "login": "tesla"
                },
                "eventType": "update",
                "description": null,
                "resourceId": 2,
                "resourceType": "REPOSITORY",
                "resourceDescription": "R Repository \"testrepo1\"",
                "changedProperties": [
                    {
                        "property": "version",
                        "valueBefore": "23",
                        "valueAfter": "24"
                    }
                ],
                "links": [
                    {
                        "rel": "eventList",
                        "href": "http://localhost:8017/api/v2/manager/events"
                    }
                ]
            },
            {
                "id": 294,
                "technology": "RDepot version: 1.7.1",
                "time": "2020-03-28T20:08:23.562",
                "user": {
                    "id": 5,
                    "name": "Nikola Tesla",
                    "login": "tesla"
                },
                "eventType": "update",
                "description": null,
                "resourceId": 2,
                "resourceType": "REPOSITORY",
                "resourceDescription": "R Repository \"testrepo1\"",
                "changedProperties": [
                    {
                        "property": "version",
                        "valueBefore": "22",
                        "valueAfter": "23"
                    }
                ],
                "links": [
                    {
                        "rel": "eventList",
                        "href": "http://localhost:8017/api/v2/manager/events"
                    }
                ]
            },
            {
                "id": 293,
                "technology": "RDepot version: 1.7.1",
                "time": "2020-03-28T20:08:23.549",
                "user": {
                    "id": 5,
                    "name": "Nikola Tesla",
                    "login": "tesla"
                },
                "eventType": "update",
                "description": null,
                "resourceId": 2,
                "resourceType": "REPOSITORY",
                "resourceDescription": "R Repository \"testrepo1\"",
                "changedProperties": [
                    {
                        "property": "version",
                        "valueBefore": "21",
                        "valueAfter": "22"
                    }
                ],
                "links": [
                    {
                        "rel": "eventList",
                        "href": "http://localhost:8017/api/v2/manager/events"
                    }
                ]
            },
            {
                "id": 292,
                "technology": "RDepot version: 1.7.1",
                "time": "2020-03-28T20:08:23.543",
                "user": {
                    "id": 5,
                    "name": "Nikola Tesla",
                    "login": "tesla"
                },
                "eventType": "update",
                "description": null,
                "resourceId": 2,
                "resourceType": "REPOSITORY",
                "resourceDescription": "R Repository \"testrepo1\"",
                "changedProperties": [
                    {
                        "property": "version",
                        "valueBefore": "20",
                        "valueAfter": "21"
                    }
                ],
                "links": [
                    {
                        "rel": "eventList",
                        "href": "http://localhost:8017/api/v2/manager/events"
                    }
                ]
            },
            {
                "id": 291,
                "technology": "RDepot version: 1.7.1",
                "time": "2020-03-28T20:08:18.299",
                "user": {
                    "id": 5,
                    "name": "Nikola Tesla",
                    "login": "tesla"
                },
                "eventType": "update",
                "description": null,
                "resourceId": 2,
                "resourceType": "REPOSITORY",
                "resourceDescription": "R Repository \"testrepo1\"",
                "changedProperties": [
                    {
                        "property": "added",
                        "valueBefore": "",
                        "valueAfter": "18"
                    }
                ],
                "links": [
                    {
                        "rel": "eventList",
                        "href": "http://localhost:8017/api/v2/manager/events"
                    }
                ]
            },
            {
                "id": 290,
                "technology": "RDepot version: 1.7.1",
                "time": "2020-03-28T20:08:18.296",
                "user": {
                    "id": 5,
                    "name": "Nikola Tesla",
                    "login": "tesla"
                },
                "eventType": "update",
                "description": null,
                "resourceId": 2,
                "resourceType": "REPOSITORY",
                "resourceDescription": "R Repository \"testrepo1\"",
                "changedProperties": [
                    {
                        "property": "version",
                        "valueBefore": "19",
                        "valueAfter": "20"
                    }
                ],
                "links": [
                    {
                        "rel": "eventList",
                        "href": "http://localhost:8017/api/v2/manager/events"
                    }
                ]
            },
            {
                "id": 289,
                "technology": "RDepot version: 1.7.1",
                "time": "2020-03-28T20:08:18.286",
                "user": {
                    "id": 5,
                    "name": "Nikola Tesla",
                    "login": "tesla"
                },
                "eventType": "update",
                "description": null,
                "resourceId": 2,
                "resourceType": "REPOSITORY",
                "resourceDescription": "R Repository \"testrepo1\"",
                "changedProperties": [
                    {
                        "property": "version",
                        "valueBefore": "18",
                        "valueAfter": "19"
                    }
                ],
                "links": [
                    {
                        "rel": "eventList",
                        "href": "http://localhost:8017/api/v2/manager/events"
                    }
                ]
            },
            {
                "id": 288,
                "technology": "RDepot version: 1.7.1",
                "time": "2020-03-28T20:08:18.268",
                "user": {
                    "id": 5,
                    "name": "Nikola Tesla",
                    "login": "tesla"
                },
                "eventType": "update",
                "description": null,
                "resourceId": 2,
                "resourceType": "REPOSITORY",
                "resourceDescription": "R Repository \"testrepo1\"",
                "changedProperties": [
                    {
                        "property": "version",
                        "valueBefore": "17",
                        "valueAfter": "18"
                    }
                ],
                "links": [
                    {
                        "rel": "eventList",
                        "href": "http://localhost:8017/api/v2/manager/events"
                    }
                ]
            },
            {
                "id": 287,
                "technology": "RDepot version: 1.7.1",
                "time": "2020-03-28T20:08:18.255",
                "user": {
                    "id": 5,
                    "name": "Nikola Tesla",
                    "login": "tesla"
                },
                "eventType": "update",
                "description": null,
                "resourceId": 2,
                "resourceType": "REPOSITORY",
                "resourceDescription": "R Repository \"testrepo1\"",
                "changedProperties": [
                    {
                        "property": "version",
                        "valueBefore": "16",
                        "valueAfter": "17"
                    }
                ],
                "links": [
                    {
                        "rel": "eventList",
                        "href": "http://localhost:8017/api/v2/manager/events"
                    }
                ]
            },
            {
                "id": 286,
                "technology": "RDepot version: 1.7.1",
                "time": "2020-03-28T20:08:12.254",
                "user": {
                    "id": 5,
                    "name": "Nikola Tesla",
                    "login": "tesla"
                },
                "eventType": "update",
                "description": null,
                "resourceId": 2,
                "resourceType": "REPOSITORY",
                "resourceDescription": "R Repository \"testrepo1\"",
                "changedProperties": [
                    {
                        "property": "added",
                        "valueBefore": "",
                        "valueAfter": "17"
                    }
                ],
                "links": [
                    {
                        "rel": "eventList",
                        "href": "http://localhost:8017/api/v2/manager/events"
                    }
                ]
            },
            {
                "id": 285,
                "technology": "RDepot version: 1.7.1",
                "time": "2020-03-28T20:08:12.251",
                "user": {
                    "id": 5,
                    "name": "Nikola Tesla",
                    "login": "tesla"
                },
                "eventType": "update",
                "description": null,
                "resourceId": 2,
                "resourceType": "REPOSITORY",
                "resourceDescription": "R Repository \"testrepo1\"",
                "changedProperties": [
                    {
                        "property": "version",
                        "valueBefore": "15",
                        "valueAfter": "16"
                    }
                ],
                "links": [
                    {
                        "rel": "eventList",
                        "href": "http://localhost:8017/api/v2/manager/events"
                    }
                ]
            },
            {
                "id": 284,
                "technology": "RDepot version: 1.7.1",
                "time": "2020-03-28T20:08:12.246",
                "user": {
                    "id": 5,
                    "name": "Nikola Tesla",
                    "login": "tesla"
                },
                "eventType": "update",
                "description": null,
                "resourceId": 2,
                "resourceType": "REPOSITORY",
                "resourceDescription": "R Repository \"testrepo1\"",
                "changedProperties": [
                    {
                        "property": "version",
                        "valueBefore": "14",
                        "valueAfter": "15"
                    }
                ],
                "links": [
                    {
                        "rel": "eventList",
                        "href": "http://localhost:8017/api/v2/manager/events"
                    }
                ]
            },
            {
                "id": 283,
                "technology": "RDepot version: 1.7.1",
                "time": "2020-03-28T20:08:12.227",
                "user": {
                    "id": 5,
                    "name": "Nikola Tesla",
                    "login": "tesla"
                },
                "eventType": "update",
                "description": null,
                "resourceId": 2,
                "resourceType": "REPOSITORY",
                "resourceDescription": "R Repository \"testrepo1\"",
                "changedProperties": [
                    {
                        "property": "version",
                        "valueBefore": "13",
                        "valueAfter": "14"
                    }
                ],
                "links": [
                    {
                        "rel": "eventList",
                        "href": "http://localhost:8017/api/v2/manager/events"
                    }
                ]
            },
            {
                "id": 282,
                "technology": "RDepot version: 1.7.1",
                "time": "2020-03-28T20:08:12.221",
                "user": {
                    "id": 5,
                    "name": "Nikola Tesla",
                    "login": "tesla"
                },
                "eventType": "update",
                "description": null,
                "resourceId": 2,
                "resourceType": "REPOSITORY",
                "resourceDescription": "R Repository \"testrepo1\"",
                "changedProperties": [
                    {
                        "property": "version",
                        "valueBefore": "12",
                        "valueAfter": "13"
                    }
                ],
                "links": [
                    {
                        "rel": "eventList",
                        "href": "http://localhost:8017/api/v2/manager/events"
                    }
                ]
            }
        ],
        "page": {
            "size": 20,
            "totalElements": 26,
            "totalPages": 2,
            "number": 0
        }
    }
}