{
  "code": 200,
  "data": {
    "links": [
      {
        "rel": "first",
        "href": "http://localhost:8017/api/v2/manager/r/packages?page=0&size=2&sort=id,asc"
      },
      {
        "rel": "prev",
        "href": "http://localhost:8017/api/v2/manager/r/packages?page=0&size=2&sort=id,asc"
      },
      {
        "rel": "self",
        "href": "http://localhost:8017/api/v2/manager/r/packages?page=1&size=2&sort=id,asc"
      },
      {
        "rel": "next",
        "href": "http://localhost:8017/api/v2/manager/r/packages?page=2&size=2&sort=id,asc"
      },
      {
        "rel": "last",
        "href": "http://localhost:8017/api/v2/manager/r/packages?page=9&size=2&sort=id,asc"
      }
    ],
    "page": {
      "number": 1,
      "size": 2,
      "totalPages": 10,
      "totalElements": 20
    },
    "content": [
      {
        "imports": null,
        "depends": "R (>= 3.0), grid",
        "author": "Julie Eaton and Ian Painter",
        "description": "Package for visualizing data quality of partially accruing time series.",
        "active": false,
        "source": "/opt/rdepot/repositories/3/46950998/accrued_1.1.tar.gz",
        "title": "Visualization tools for partially accruing data",
        "userId": 4,
        "version": "1.1",
        "url": null,
        "suggests": null,
        "license": "GPL-3",
        "systemRequirements": null,
        "submissionId": 4,
        "deleted": true,
        "md5sum": "24b8cec280424dfc6a9e444fa57ba9f3",
        "repositoryId": 3,
        "name": "accrued",
        "links": [
          {
            "rel": "self",
            "href": "http://localhost:8017/api/v2/manager/r/packages/6"
          },
          {
            "rel": "packageList",
            "href": "http://localhost:8017/api/v2/manager/r/packages"
          }
        ],
        "id": 6
      },
      {
        "imports": null,
        "depends": "R (>= 2.14.1), grid",
        "author": "Julie Eaton and Ian Painter",
        "description": "Package for visualizing data quality of partially accruing data.",
        "active": false,
        "source": "/opt/rdepot/repositories/3/28075835/accrued_1.4.tar.gz",
        "title": "Data Quality Visualization Tools for Partially Accruing Data",
        "userId": 4,
        "version": "1.4",
        "url": null,
        "suggests": null,
        "license": "GPL-3",
        "systemRequirements": null,
        "submissionId": 8,
        "deleted": false,
        "md5sum": "97c2930a9dd7ca9fc1409d5340c06470",
        "repositoryId": 3,
        "name": "accrued",
        "links": [
          {
            "rel": "self",
            "href": "http://localhost:8017/api/v2/manager/r/packages/7"
          },
          {
            "rel": "packageList",
            "href": "http://localhost:8017/api/v2/manager/r/packages"
          }
        ],
        "id": 7
      }
    ]
  },
  "messageCode": "success.request.processed",
  "message": "Your request has been processed successfully.",
  "status": "success"
}