{
	"code": 200,
	"data": {
		"links": [
			{
				"rel": "first",
				"href": "http:\/\/localhost:8017\/api\/v2\/manager\/packages?page=0&size=20&sort=id,asc"
			},
			{
				"rel": "self",
				"href": "http:\/\/localhost:8017\/api\/v2\/manager\/packages?page=0&size=20&sort=id,asc"
			},
			{
				"rel": "next",
				"href": "http:\/\/localhost:8017\/api\/v2\/manager\/packages?page=1&size=20&sort=id,asc"
			},
			{
				"rel": "last",
				"href": "http:\/\/localhost:8017\/api\/v2\/manager\/packages?page=2&size=20&sort=id,asc"
			}
		],
		"page": {
			"number": 0,
			"size": 20,
			"totalPages": 3,
			"totalElements": 42
		},
		"content": [
			{
				"author": "Julie Eaton and Ian Painter",
				"active": true,
				"description": "Package for visualizing data quality of partially accruing data.",
				"source": "\/opt\/rdepot\/repositories\/3\/99077116\/accrued_1.3.5.tar.gz",
				"technology": "R",
				"repository": {
					"name": "testrepo2",
					"lastPublicationSuccessful": true,
					"id": 3,
					"published": true,
					"technology": "R",
					"requiresAuthentication": true,
					"publicationUri": "http:\/\/localhost\/repo\/testrepo2"
				},
				"title": "Data Quality Visualization Tools for Partially Accruing Data",
				"version": "1.3.5",
				"url": null,
				"deleted": false,
				"descriptionContentType": "txt",
				"binary": false,
				"name": "accrued",
				"submission": {
					"id": 5,
					"state": "ACCEPTED"
				},
				"links": [
					{
						"rel": "self",
						"href": "http:\/\/localhost:8017\/api\/v2\/manager\/r\/packages\/4"
					},
					{
						"rel": "packageList",
						"href": "http:\/\/localhost:8017\/api\/v2\/manager\/packages"
					}
				],
				"id": 4,
				"user": {
					"name": "Albert Einstein",
					"id": 4,
					"login": "einstein",
					"email": "einstein@ldap.forumsys.com"
				}
			},
			{
				"author": "Julie Eaton and Ian Painter",
				"active": true,
				"description": "Package for visualizing data quality of partially accruing data.",
				"source": "\/opt\/rdepot\/repositories\/3\/82197810\/accrued_1.3.tar.gz",
				"technology": "R",
				"repository": {
					"name": "testrepo2",
					"lastPublicationSuccessful": true,
					"id": 3,
					"published": true,
					"technology": "R",
					"requiresAuthentication": true,
					"publicationUri": "http:\/\/localhost\/repo\/testrepo2"
				},
				"title": "Data Quality Visualization Tools for Partially Accruing Data",
				"version": "1.3",
				"url": null,
				"deleted": false,
				"descriptionContentType": "txt",
				"binary": false,
				"name": "accrued",
				"submission": {
					"id": 7,
					"state": "ACCEPTED"
				},
				"links": [
					{
						"rel": "self",
						"href": "http:\/\/localhost:8017\/api\/v2\/manager\/r\/packages\/5"
					},
					{
						"rel": "packageList",
						"href": "http:\/\/localhost:8017\/api\/v2\/manager\/packages"
					}
				],
				"id": 5,
				"user": {
					"name": "Albert Einstein",
					"id": 4,
					"login": "einstein",
					"email": "einstein@ldap.forumsys.com"
				}
			},
			{
				"author": "Julie Eaton and Ian Painter",
				"active": false,
				"description": "Package for visualizing data quality of partially accruing time series.",
				"source": "\/opt\/rdepot\/repositories\/3\/46950998\/accrued_1.1.tar.gz",
				"technology": "R",
				"repository": {
					"name": "testrepo2",
					"lastPublicationSuccessful": true,
					"id": 3,
					"published": true,
					"technology": "R",
					"requiresAuthentication": true,
					"publicationUri": "http:\/\/localhost\/repo\/testrepo2"
				},
				"title": "Visualization tools for partially accruing data",
				"version": "1.1",
				"url": null,
				"deleted": true,
				"descriptionContentType": "txt",
				"binary": false,
				"name": "accrued",
				"submission": {
					"id": 4,
					"state": "ACCEPTED"
				},
				"links": [
					{
						"rel": "self",
						"href": "http:\/\/localhost:8017\/api\/v2\/manager\/r\/packages\/6"
					},
					{
						"rel": "packageList",
						"href": "http:\/\/localhost:8017\/api\/v2\/manager\/packages"
					}
				],
				"id": 6,
				"user": {
					"name": "Albert Einstein",
					"id": 4,
					"login": "einstein",
					"email": "einstein@ldap.forumsys.com"
				}
			},
			{
				"author": "Julie Eaton and Ian Painter",
				"active": false,
				"description": "Package for visualizing data quality of partially accruing data.",
				"source": "\/opt\/rdepot\/repositories\/3\/28075835\/accrued_1.4.tar.gz",
				"technology": "R",
				"repository": {
					"name": "testrepo2",
					"lastPublicationSuccessful": true,
					"id": 3,
					"published": true,
					"technology": "R",
					"requiresAuthentication": true,
					"publicationUri": "http:\/\/localhost\/repo\/testrepo2"
				},
				"title": "Data Quality Visualization Tools for Partially Accruing Data",
				"version": "1.4",
				"url": null,
				"deleted": false,
				"descriptionContentType": "txt",
				"binary": false,
				"name": "accrued",
				"submission": {
					"id": 8,
					"state": "ACCEPTED"
				},
				"links": [
					{
						"rel": "self",
						"href": "http:\/\/localhost:8017\/api\/v2\/manager\/r\/packages\/7"
					},
					{
						"rel": "packageList",
						"href": "http:\/\/localhost:8017\/api\/v2\/manager\/packages"
					}
				],
				"id": 7,
				"user": {
					"name": "Albert Einstein",
					"id": 4,
					"login": "einstein",
					"email": "einstein@ldap.forumsys.com"
				}
			},
			{
				"author": "Julie Eaton and Ian Painter",
				"active": true,
				"description": "Package for visualizing data quality of partially accruing time series.",
				"source": "\/opt\/rdepot\/repositories\/3\/83118397\/accrued_1.2.tar.gz",
				"technology": "R",
				"repository": {
					"name": "testrepo2",
					"lastPublicationSuccessful": true,
					"id": 3,
					"published": true,
					"technology": "R",
					"requiresAuthentication": true,
					"publicationUri": "http:\/\/localhost\/repo\/testrepo2"
				},
				"title": "Visualization tools for partially accruing data",
				"version": "1.2",
				"url": null,
				"deleted": false,
				"descriptionContentType": "txt",
				"binary": false,
				"name": "accrued",
				"submission": {
					"id": 6,
					"state": "ACCEPTED"
				},
				"links": [
					{
						"rel": "self",
						"href": "http:\/\/localhost:8017\/api\/v2\/manager\/r\/packages\/8"
					},
					{
						"rel": "packageList",
						"href": "http:\/\/localhost:8017\/api\/v2\/manager\/packages"
					}
				],
				"id": 8,
				"user": {
					"name": "Albert Einstein",
					"id": 4,
					"login": "einstein",
					"email": "einstein@ldap.forumsys.com"
				}
			},
			{
				"author": "Scott Fortmann-Roe",
				"active": true,
				"description": "This package supplies tools for tabulating and analyzing the results of predictive models. The methods employed are applicable to virtually any predictive model and make comparisons between different methodologies straightforward.",
				"source": "\/opt\/rdepot\/repositories\/4\/47098069\/A3_0.9.1.tar.gz",
				"technology": "R",
				"repository": {
					"name": "testrepo3",
					"lastPublicationSuccessful": false,
					"id": 4,
					"published": false,
					"technology": "R",
					"requiresAuthentication": true,
					"publicationUri": "http:\/\/localhost\/repo\/testrepo3"
				},
				"title": "A3: Accurate, Adaptable, and Accessible Error Metrics for Predictive Models",
				"version": "0.9.1",
				"url": null,
				"deleted": false,
				"descriptionContentType": "txt",
				"binary": false,
				"name": "A3",
				"submission": {
					"id": 9,
					"state": "ACCEPTED"
				},
				"links": [
					{
						"rel": "self",
						"href": "http:\/\/localhost:8017\/api\/v2\/manager\/r\/packages\/9"
					},
					{
						"rel": "packageList",
						"href": "http:\/\/localhost:8017\/api\/v2\/manager\/packages"
					}
				],
				"id": 9,
				"user": {
					"name": "Galileo Galilei",
					"id": 6,
					"login": "galieleo",
					"email": "galieleo@ldap.forumsys.com"
				}
			},
			{
				"author": "Scott Fortmann-Roe",
				"active": true,
				"description": "This package supplies tools for tabulating and analyzing the results of predictive models. The methods employed are applicable to virtually any predictive model and make comparisons between different methodologies straightforward.",
				"source": "\/opt\/rdepot\/repositories\/4\/54491936\/A3_0.9.2.tar.gz",
				"technology": "R",
				"repository": {
					"name": "testrepo3",
					"lastPublicationSuccessful": false,
					"id": 4,
					"published": false,
					"technology": "R",
					"requiresAuthentication": true,
					"publicationUri": "http:\/\/localhost\/repo\/testrepo3"
				},
				"title": "A3: Accurate, Adaptable, and Accessible Error Metrics for Predictive Models",
				"version": "0.9.2",
				"url": null,
				"deleted": false,
				"descriptionContentType": "txt",
				"binary": false,
				"name": "A3",
				"submission": {
					"id": 10,
					"state": "ACCEPTED"
				},
				"links": [
					{
						"rel": "self",
						"href": "http:\/\/localhost:8017\/api\/v2\/manager\/r\/packages\/10"
					},
					{
						"rel": "packageList",
						"href": "http:\/\/localhost:8017\/api\/v2\/manager\/packages"
					}
				],
				"id": 10,
				"user": {
					"name": "Galileo Galilei",
					"id": 6,
					"login": "galieleo",
					"email": "galieleo@ldap.forumsys.com"
				}
			},
			{
				"author": "Katalin Csillery, Michael Blum and Olivier Francois",
				"active": false,
				"description": "The package implements several ABC algorithms for performing parameter estimation and model selection. Cross-validation tools are also available for measuring the accuracy of ABC estimates, and to calculate the misclassification probabilities of different models.",
				"source": "\/opt\/rdepot\/repositories\/4\/95296712\/abc_1.3.tar.gz",
				"technology": "R",
				"repository": {
					"name": "testrepo3",
					"lastPublicationSuccessful": false,
					"id": 4,
					"published": false,
					"technology": "R",
					"requiresAuthentication": true,
					"publicationUri": "http:\/\/localhost\/repo\/testrepo3"
				},
				"title": "Tools for Approximate Bayesian Computation (ABC)",
				"version": "1.3",
				"url": null,
				"deleted": false,
				"descriptionContentType": "txt",
				"binary": false,
				"name": "abc",
				"submission": {
					"id": 11,
					"state": "ACCEPTED"
				},
				"links": [
					{
						"rel": "self",
						"href": "http:\/\/localhost:8017\/api\/v2\/manager\/r\/packages\/11"
					},
					{
						"rel": "packageList",
						"href": "http:\/\/localhost:8017\/api\/v2\/manager\/packages"
					}
				],
				"id": 11,
				"user": {
					"name": "Galileo Galilei",
					"id": 6,
					"login": "galieleo",
					"email": "galieleo@ldap.forumsys.com"
				}
			},
			{
				"author": "Katalin Csillery, with contributions from Michael Blum and Olivier Francois",
				"active": true,
				"description": "The 'abc' package provides various functions for parameter estimation and model selection in an ABC framework. Three main",
				"source": "\/opt\/rdepot\/repositories\/4\/49426769\/abc_1.0.tar.gz",
				"technology": "R",
				"repository": {
					"name": "testrepo3",
					"lastPublicationSuccessful": false,
					"id": 4,
					"published": false,
					"technology": "R",
					"requiresAuthentication": true,
					"publicationUri": "http:\/\/localhost\/repo\/testrepo3"
				},
				"title": "Functions to perform Approximate Bayesian Computation (ABC) using simulated data",
				"version": "1.0",
				"url": null,
				"deleted": false,
				"descriptionContentType": "txt",
				"binary": false,
				"name": "abc",
				"submission": {
					"id": 12,
					"state": "ACCEPTED"
				},
				"links": [
					{
						"rel": "self",
						"href": "http:\/\/localhost:8017\/api\/v2\/manager\/r\/packages\/12"
					},
					{
						"rel": "packageList",
						"href": "http:\/\/localhost:8017\/api\/v2\/manager\/packages"
					}
				],
				"id": 12,
				"user": {
					"name": "Galileo Galilei",
					"id": 6,
					"login": "galieleo",
					"email": "galieleo@ldap.forumsys.com"
				}
			},
			{
				"author": "Julie Eaton and Ian Painter",
				"active": false,
				"description": "Package for visualizing data quality of partially accruing time series.",
				"source": "\/opt\/rdepot\/repositories\/2\/40553654\/accrued_1.0.tar.gz",
				"technology": "R",
				"repository": {
					"name": "testrepo1",
					"lastPublicationSuccessful": true,
					"id": 2,
					"published": true,
					"technology": "R",
					"requiresAuthentication": false,
					"publicationUri": "http:\/\/localhost\/repo\/testrepo1"
				},
				"title": "Visualization tools for partially accruing data",
				"version": "1.0",
				"url": null,
				"deleted": false,
				"descriptionContentType": "txt",
				"binary": false,
				"name": "accrued",
				"submission": {
					"id": 14,
					"state": "ACCEPTED"
				},
				"links": [
					{
						"rel": "self",
						"href": "http:\/\/localhost:8017\/api\/v2\/manager\/r\/packages\/13"
					},
					{
						"rel": "packageList",
						"href": "http:\/\/localhost:8017\/api\/v2\/manager\/packages"
					}
				],
				"id": 13,
				"user": {
					"name": "Galileo Galilei",
					"id": 6,
					"login": "galieleo",
					"email": "galieleo@ldap.forumsys.com"
				}
			},
			{
				"author": "Bulent Altunkaynak [aut, cre], Hamza Gamgam [aut]",
				"active": false,
				"description": "Performs nonparametric tests for equality of location against ordered alternatives.",
				"source": "\/opt\/rdepot\/repositories\/2\/8436419\/npordtests_1.1.tar.gz",
				"technology": "R",
				"repository": {
					"name": "testrepo1",
					"lastPublicationSuccessful": true,
					"id": 2,
					"published": true,
					"technology": "R",
					"requiresAuthentication": false,
					"publicationUri": "http:\/\/localhost\/repo\/testrepo1"
				},
				"title": "Nonparametric Tests for Equality of Location Against Ordered Alternatives",
				"version": "1.1",
				"url": null,
				"deleted": true,
				"descriptionContentType": "txt",
				"binary": false,
				"name": "npordtests",
				"submission": {
					"id": 15,
					"state": "ACCEPTED"
				},
				"links": [
					{
						"rel": "self",
						"href": "http:\/\/localhost:8017\/api\/v2\/manager\/r\/packages\/14"
					},
					{
						"rel": "packageList",
						"href": "http:\/\/localhost:8017\/api\/v2\/manager\/packages"
					}
				],
				"id": 14,
				"user": {
					"name": "Nikola Tesla",
					"id": 5,
					"login": "tesla",
					"email": "tesla@ldap.forumsys.com"
				}
			},
			{
				"author": "Andrea Batch [aut, cre], Jeff Chen [ctb], Walt Kampas [ctb]",
				"active": true,
				"description": "Provides an R interface for the Bureau of Economic Analysis (BEA)",
				"source": "\/opt\/rdepot\/repositories\/2\/89565416\/bea.R_1.0.5.tar.gz",
				"technology": "R",
				"repository": {
					"name": "testrepo1",
					"lastPublicationSuccessful": true,
					"id": 2,
					"published": true,
					"technology": "R",
					"requiresAuthentication": false,
					"publicationUri": "http:\/\/localhost\/repo\/testrepo1"
				},
				"title": "Bureau of Economic Analysis API",
				"version": "1.0.5",
				"url": "https:\/\/github.com\/us-bea\/beaR",
				"deleted": false,
				"descriptionContentType": "txt",
				"binary": false,
				"name": "bea.R",
				"submission": {
					"id": 13,
					"state": "ACCEPTED"
				},
				"links": [
					{
						"rel": "self",
						"href": "http:\/\/localhost:8017\/api\/v2\/manager\/r\/packages\/15"
					},
					{
						"rel": "packageList",
						"href": "http:\/\/localhost:8017\/api\/v2\/manager\/packages"
					}
				],
				"id": 15,
				"user": {
					"name": "Nikola Tesla",
					"id": 5,
					"login": "tesla",
					"email": "tesla@ldap.forumsys.com"
				}
			},
			{
				"author": "Scott Fortmann-Roe",
				"active": false,
				"description": "This package supplies tools for tabulating and analyzing the results of predictive models. The methods employed are applicable to virtually any predictive model and make comparisons between different methodologies straightforward.",
				"source": "",
				"technology": "R",
				"repository": {
					"name": "testrepo1",
					"lastPublicationSuccessful": true,
					"id": 2,
					"published": true,
					"technology": "R",
					"requiresAuthentication": false,
					"publicationUri": "http:\/\/localhost\/repo\/testrepo1"
				},
				"title": "A3: Accurate, Adaptable, and Accessible Error Metrics for Predictive Models",
				"version": "0.9.1",
				"url": null,
				"deleted": false,
				"descriptionContentType": "txt",
				"binary": false,
				"name": "A3",
				"submission": {
					"id": 16,
					"state": "REJECTED"
				},
				"links": [
					{
						"rel": "self",
						"href": "http:\/\/localhost:8017\/api\/v2\/manager\/r\/packages\/16"
					},
					{
						"rel": "packageList",
						"href": "http:\/\/localhost:8017\/api\/v2\/manager\/packages"
					}
				],
				"id": 16,
				"user": {
					"name": "Albert Einstein",
					"id": 4,
					"login": "einstein",
					"email": "einstein@ldap.forumsys.com"
				}
			},
			{
				"author": "Scott Fortmann-Roe",
				"active": true,
				"description": "This package supplies tools for tabulating and analyzing the results of predictive models. The methods employed are applicable to virtually any predictive model and make comparisons between different methodologies straightforward.",
				"source": "\/opt\/rdepot\/repositories\/2\/9907084\/A3_0.9.2.tar.gz",
				"technology": "R",
				"repository": {
					"name": "testrepo1",
					"lastPublicationSuccessful": true,
					"id": 2,
					"published": true,
					"technology": "R",
					"requiresAuthentication": false,
					"publicationUri": "http:\/\/localhost\/repo\/testrepo1"
				},
				"title": "A3: Accurate, Adaptable, and Accessible Error Metrics for Predictive Models",
				"version": "0.9.2",
				"url": null,
				"deleted": false,
				"descriptionContentType": "txt",
				"binary": false,
				"name": "A3",
				"submission": {
					"id": 17,
					"state": "ACCEPTED"
				},
				"links": [
					{
						"rel": "self",
						"href": "http:\/\/localhost:8017\/api\/v2\/manager\/r\/packages\/17"
					},
					{
						"rel": "packageList",
						"href": "http:\/\/localhost:8017\/api\/v2\/manager\/packages"
					}
				],
				"id": 17,
				"user": {
					"name": "Nikola Tesla",
					"id": 5,
					"login": "tesla",
					"email": "tesla@ldap.forumsys.com"
				}
			},
			{
				"author": "Katalin Csillery, Michael Blum and Olivier Francois",
				"active": true,
				"description": "The package implements several ABC algorithms for performing parameter estimation and model selection. Cross-validation tools are also available for measuring the accuracy of ABC estimates, and to calculate the misclassification probabilities of different models.",
				"source": "\/opt\/rdepot\/repositories\/2\/88170013\/abc_1.3.tar.gz",
				"technology": "R",
				"repository": {
					"name": "testrepo1",
					"lastPublicationSuccessful": true,
					"id": 2,
					"published": true,
					"technology": "R",
					"requiresAuthentication": false,
					"publicationUri": "http:\/\/localhost\/repo\/testrepo1"
				},
				"title": "Tools for Approximate Bayesian Computation (ABC)",
				"version": "1.3",
				"url": null,
				"deleted": false,
				"descriptionContentType": "txt",
				"binary": false,
				"name": "abc",
				"submission": {
					"id": 18,
					"state": "ACCEPTED"
				},
				"links": [
					{
						"rel": "self",
						"href": "http:\/\/localhost:8017\/api\/v2\/manager\/r\/packages\/18"
					},
					{
						"rel": "packageList",
						"href": "http:\/\/localhost:8017\/api\/v2\/manager\/packages"
					}
				],
				"id": 18,
				"user": {
					"name": "Nikola Tesla",
					"id": 5,
					"login": "tesla",
					"email": "tesla@ldap.forumsys.com"
				}
			},
			{
				"author": "Nicholas Tierney [aut, cre]",
				"active": false,
				"description": "Create preliminary exploratory data visualisations of an entire dataset to identify problems or unexpected features using 'ggplot2'.",
				"source": "\/opt\/rdepot\/new\/70032548\/visdat_0.1.0.tar.gz",
				"technology": "R",
				"repository": {
					"name": "testrepo2",
					"lastPublicationSuccessful": true,
					"id": 3,
					"published": true,
					"technology": "R",
					"requiresAuthentication": true,
					"publicationUri": "http:\/\/localhost\/repo\/testrepo2"
				},
				"title": "Preliminary Data Visualisation",
				"version": "0.1.0",
				"url": "https:\/\/github.com\/njtierney\/visdat\/",
				"deleted": false,
				"descriptionContentType": "txt",
				"binary": false,
				"name": "visdat",
				"submission": {
					"id": 19,
					"state": "WAITING"
				},
				"links": [
					{
						"rel": "self",
						"href": "http:\/\/localhost:8017\/api\/v2\/manager\/r\/packages\/19"
					},
					{
						"rel": "packageList",
						"href": "http:\/\/localhost:8017\/api\/v2\/manager\/packages"
					}
				],
				"id": 19,
				"user": {
					"name": "Albert Einstein",
					"id": 4,
					"login": "einstein",
					"email": "einstein@ldap.forumsys.com"
				}
			},
			{
				"author": "Cedric Landerer [aut, cre], Gabriel Hanas [ctb], Jeremy Rogers [ctb], Alex Cope [ctb], Denizhan Pak [ctb]",
				"active": true,
				"description": "Is a collection of models to analyze genome scale codon data using a Bayesian framework. Provides visualization routines and checkpointing for model fittings. Currently published models to analyze gene data for selection on codon",
				"source": "\/opt\/rdepot\/repositories\/5\/39437028\/AnaCoDa_0.1.2.3.tar.gz",
				"technology": "R",
				"repository": {
					"name": "testrepo4",
					"lastPublicationSuccessful": false,
					"id": 5,
					"published": false,
					"technology": "R",
					"requiresAuthentication": true,
					"publicationUri": "http:\/\/localhost\/repo\/testrepo4"
				},
				"title": "Analysis of Codon Data under Stationarity using a Bayesian Framework",
				"version": "0.1.2.3",
				"url": "https:\/\/github.com\/clandere\/AnaCoDa",
				"deleted": false,
				"descriptionContentType": "txt",
				"binary": false,
				"name": "AnaCoDa",
				"submission": {
					"id": 20,
					"state": "ACCEPTED"
				},
				"links": [
					{
						"rel": "self",
						"href": "http:\/\/localhost:8017\/api\/v2\/manager\/r\/packages\/20"
					},
					{
						"rel": "packageList",
						"href": "http:\/\/localhost:8017\/api\/v2\/manager\/packages"
					}
				],
				"id": 20,
				"user": {
					"name": "Galileo Galilei",
					"id": 6,
					"login": "galieleo",
					"email": "galieleo@ldap.forumsys.com"
				}
			},
			{
				"author": "Peter Bogetoft and Lars Otto",
				"active": true,
				"description": "Estimates and graphs deterministic (DEA) frontier models with different technology assumptions (fdh, vrs, drs, crs, irs, add). Also handles possible slacks, peers and their weights (lambdas), optimal cost, revenue and profit allocation, super--efficiency, and mergers. A comparative method for estimating SFA efficiencies is included.",
				"source": "\/opt\/rdepot\/repositories\/2\/71228208\/Benchmarking_0.10.tar.gz",
				"technology": "R",
				"repository": {
					"name": "testrepo1",
					"lastPublicationSuccessful": true,
					"id": 2,
					"published": true,
					"technology": "R",
					"requiresAuthentication": false,
					"publicationUri": "http:\/\/localhost\/repo\/testrepo1"
				},
				"title": "Benchmark and frontier analysis using DEA and SFA",
				"version": "0.10",
				"url": null,
				"deleted": false,
				"descriptionContentType": "txt",
				"binary": false,
				"name": "Benchmarking",
				"submission": {
					"id": 21,
					"state": "ACCEPTED"
				},
				"links": [
					{
						"rel": "self",
						"href": "http:\/\/localhost:8017\/api\/v2\/manager\/r\/packages\/21"
					},
					{
						"rel": "packageList",
						"href": "http:\/\/localhost:8017\/api\/v2\/manager\/packages"
					}
				],
				"id": 21,
				"user": {
					"name": "Nikola Tesla",
					"id": 5,
					"login": "tesla",
					"email": "tesla@ldap.forumsys.com"
				}
			},
			{
				"author": "Cedric Landerer [aut, cre], Gabriel Hanas [ctb], Jeremy Rogers [ctb], Alex Cope [ctb], Denizhan Pak [ctb]",
				"active": false,
				"description": "Is a collection of models to analyze genome scale codon data using a Bayesian framework. Provides visualization routines and checkpointing for model fittings. Currently published models to analyze gene data for selection on codon",
				"source": "",
				"technology": "R",
				"repository": {
					"name": "testrepo1",
					"lastPublicationSuccessful": true,
					"id": 2,
					"published": true,
					"technology": "R",
					"requiresAuthentication": false,
					"publicationUri": "http:\/\/localhost\/repo\/testrepo1"
				},
				"title": "Analysis of Codon Data under Stationarity using a Bayesian Framework",
				"version": "0.1.2.3",
				"url": "https:\/\/github.com\/clandere\/AnaCoDa",
				"deleted": false,
				"descriptionContentType": "txt",
				"binary": false,
				"name": "AnaCoDa",
				"submission": {
					"id": 23,
					"state": "CANCELLED"
				},
				"links": [
					{
						"rel": "self",
						"href": "http:\/\/localhost:8017\/api\/v2\/manager\/r\/packages\/22"
					},
					{
						"rel": "packageList",
						"href": "http:\/\/localhost:8017\/api\/v2\/manager\/packages"
					}
				],
				"id": 22,
				"user": {
					"name": "Albert Einstein",
					"id": 4,
					"login": "einstein",
					"email": "einstein@ldap.forumsys.com"
				}
			},
			{
				"author": "Nicholas Tierney [aut, cre]",
				"active": false,
				"description": "Create preliminary exploratory data visualisations of an entire dataset to identify problems or unexpected features using 'ggplot2'.",
				"source": "",
				"technology": "R",
				"repository": {
					"name": "testrepo1",
					"lastPublicationSuccessful": true,
					"id": 2,
					"published": true,
					"technology": "R",
					"requiresAuthentication": false,
					"publicationUri": "http:\/\/localhost\/repo\/testrepo1"
				},
				"title": "Preliminary Data Visualisation",
				"version": "0.1.0",
				"url": "https:\/\/github.com\/njtierney\/visdat\/",
				"deleted": false,
				"descriptionContentType": "txt",
				"binary": false,
				"name": "visdat",
				"submission": {
					"id": 22,
					"state": "REJECTED"
				},
				"links": [
					{
						"rel": "self",
						"href": "http:\/\/localhost:8017\/api\/v2\/manager\/r\/packages\/23"
					},
					{
						"rel": "packageList",
						"href": "http:\/\/localhost:8017\/api\/v2\/manager\/packages"
					}
				],
				"id": 23,
				"user": {
					"name": "Albert Einstein",
					"id": 4,
					"login": "einstein",
					"email": "einstein@ldap.forumsys.com"
				}
			}
		]
	},
	"messageCode": "success.request.processed",
	"message": "Your request has been processed successfully.",
	"status": "SUCCESS"
}
