{
	"code": 200,
	"data": {
		"links": [
			{
				"rel": "first",
				"href": "http:\/\/localhost:8017\/api\/v2\/manager\/events?page=0&size=20&sort=time,desc"
			},
			{
				"rel": "self",
				"href": "http:\/\/localhost:8017\/api\/v2\/manager\/events?page=0&size=20&sort=time,desc"
			},
			{
				"rel": "next",
				"href": "http:\/\/localhost:8017\/api\/v2\/manager\/events?page=1&size=20&sort=time,desc"
			},
			{
				"rel": "last",
				"href": "http:\/\/localhost:8017\/api\/v2\/manager\/events?page=19&size=20&sort=time,desc"
			}
		],
		"page": {
			"number": 0,
			"size": 20,
			"totalPages": 20,
			"totalElements": 399
		},
		"content": [
			{
				"relatedResource": {
					"approver": {
						"name": "Albert Einstein",
						"id": 4,
						"login": "einstein",
						"email": "einstein@ldap.forumsys.com"
					},
					"submitter": {
						"name": "Albert Einstein",
						"id": 4,
						"login": "einstein",
						"email": "einstein@ldap.forumsys.com"
					},
					"created": "2024-11-19T11:22:33Z",
					"changes": null,
					"id": 47,
					"state": "ACCEPTED",
					"technology": "R",
					"packageBag": {
						"deleted": false,
						"binary": true,
						"name": "arrow",
						"active": true,
						"submission": {
							"id": 47,
							"state": "ACCEPTED"
						},
						"links": [],
						"id": 47,
						"source": "\/opt\/rdepot\/repositories\/5\/32912654\/arrow_8.0.0.tar.gz",
						"technology": "R",
						"repository": {
							"name": "testrepo4",
							"lastPublicationSuccessful": false,
							"id": 5,
							"published": false,
							"technology": "R",
							"requiresAuthentication": true,
							"publicationUri": "http:\/\/localhost\/repo\/testrepo4"
						},
						"user": {
							"name": "Nikola Tesla",
							"id": 5,
							"login": "tesla",
							"email": "tesla@ldap.forumsys.com"
						},
						"version": "8.0.0"
					}
				},
				"resourceId": 47,
				"changedProperties": [],
				"links": [
					{
						"rel": "self",
						"href": "http:\/\/localhost:8017\/api\/v2\/manager\/events\/399"
					},
					{
						"rel": "eventList",
						"href": "http:\/\/localhost:8017\/api\/v2\/manager\/events"
					}
				],
				"id": 399,
				"technology": "RDepot version: 2.5.1",
				"time": "2024-11-19T11:22:33Z",
				"eventType": "upload",
				"user": {
					"name": "Isaac Newton",
					"id": 7,
					"login": "newton",
					"email": "newton@ldap.forumsys.com"
				},
				"resourceType": "SUBMISSION"
			},
			{
				"relatedResource": {
					"deleted": false,
					"name": "century",
					"active": true,
					"id": 8,
					"creationDate": "2024-01-19T00:00:00Z",
					"value": null,
					"user": {
						"name": "Isaac Newton",
						"id": 7,
						"login": "newton",
						"email": "newton@ldap.forumsys.com"
					},
					"expirationDate": "2124-12-31T00:00:00Z"
				},
				"resourceId": 8,
				"changedProperties": [],
				"links": [
					{
						"rel": "self",
						"href": "http:\/\/localhost:8017\/api\/v2\/manager\/events\/398"
					},
					{
						"rel": "eventList",
						"href": "http:\/\/localhost:8017\/api\/v2\/manager\/events"
					}
				],
				"id": 398,
				"technology": "RDepot version: 2.5.1",
				"time": "2024-01-19T13:42:35Z",
				"eventType": "create",
				"user": {
					"name": "Isaac Newton",
					"id": 7,
					"login": "newton",
					"email": "newton@ldap.forumsys.com"
				},
				"resourceType": "ACCESS_TOKEN"
			},
			{
				"relatedResource": {
					"deleted": false,
					"name": "century",
					"active": true,
					"id": 7,
					"creationDate": "2024-01-19T00:00:00Z",
					"value": null,
					"user": {
						"name": "Galileo Galilei",
						"id": 6,
						"login": "galieleo",
						"email": "galieleo@ldap.forumsys.com"
					},
					"expirationDate": "2124-12-31T00:00:00Z"
				},
				"resourceId": 7,
				"changedProperties": [],
				"links": [
					{
						"rel": "self",
						"href": "http:\/\/localhost:8017\/api\/v2\/manager\/events\/397"
					},
					{
						"rel": "eventList",
						"href": "http:\/\/localhost:8017\/api\/v2\/manager\/events"
					}
				],
				"id": 397,
				"technology": "RDepot version: 2.5.1",
				"time": "2024-01-19T13:42:34Z",
				"eventType": "create",
				"user": {
					"name": "Galileo Galilei",
					"id": 6,
					"login": "galieleo",
					"email": "galieleo@ldap.forumsys.com"
				},
				"resourceType": "ACCESS_TOKEN"
			},
			{
				"relatedResource": {
					"deleted": false,
					"name": "century",
					"active": true,
					"id": 6,
					"creationDate": "2024-01-19T00:00:00Z",
					"value": null,
					"user": {
						"name": "Nikola Tesla",
						"id": 5,
						"login": "tesla",
						"email": "tesla@ldap.forumsys.com"
					},
					"expirationDate": "2124-12-31T00:00:00Z"
				},
				"resourceId": 6,
				"changedProperties": [],
				"links": [
					{
						"rel": "self",
						"href": "http:\/\/localhost:8017\/api\/v2\/manager\/events\/396"
					},
					{
						"rel": "eventList",
						"href": "http:\/\/localhost:8017\/api\/v2\/manager\/events"
					}
				],
				"id": 396,
				"technology": "RDepot version: 2.5.1",
				"time": "2024-01-19T13:42:32Z",
				"eventType": "create",
				"user": {
					"name": "Nikola Tesla",
					"id": 5,
					"login": "tesla",
					"email": "tesla@ldap.forumsys.com"
				},
				"resourceType": "ACCESS_TOKEN"
			},
			{
				"relatedResource": {
					"deleted": false,
					"name": "century",
					"active": true,
					"id": 5,
					"creationDate": "2024-01-19T00:00:00Z",
					"value": null,
					"user": {
						"name": "Albert Einstein",
						"id": 4,
						"login": "einstein",
						"email": "einstein@ldap.forumsys.com"
					},
					"expirationDate": "2124-12-31T00:00:00Z"
				},
				"resourceId": 5,
				"changedProperties": [],
				"links": [
					{
						"rel": "self",
						"href": "http:\/\/localhost:8017\/api\/v2\/manager\/events\/395"
					},
					{
						"rel": "eventList",
						"href": "http:\/\/localhost:8017\/api\/v2\/manager\/events"
					}
				],
				"id": 395,
				"technology": "RDepot version: 2.5.1",
				"time": "2024-01-19T13:42:26Z",
				"eventType": "create",
				"user": {
					"name": "Albert Einstein",
					"id": 4,
					"login": "einstein",
					"email": "einstein@ldap.forumsys.com"
				},
				"resourceType": "ACCESS_TOKEN"
			},
			{
				"relatedResource": {
					"deleted": false,
					"name": "expired",
					"active": false,
					"id": 4,
					"creationDate": "2023-12-06T00:00:00Z",
					"value": null,
					"user": {
						"name": "Isaac Newton",
						"id": 7,
						"login": "newton",
						"email": "newton@ldap.forumsys.com"
					},
					"expirationDate": "2023-12-07T00:00:00Z"
				},
				"resourceId": 4,
				"changedProperties": [
					{
						"valueAfter": "false",
						"property": "active",
						"valueBefore": "true"
					}
				],
				"links": [
					{
						"rel": "self",
						"href": "http:\/\/localhost:8017\/api\/v2\/manager\/events\/394"
					},
					{
						"rel": "eventList",
						"href": "http:\/\/localhost:8017\/api\/v2\/manager\/events"
					}
				],
				"id": 394,
				"technology": "RDepot version: 2.5.1",
				"time": "2023-12-07T23:59:59Z",
				"eventType": "update",
				"user": {
					"name": "Isaac Newton",
					"id": 7,
					"login": "newton",
					"email": "newton@ldap.forumsys.com"
				},
				"resourceType": "ACCESS_TOKEN"
			},
			{
				"relatedResource": {
					"deleted": false,
					"name": "expired",
					"active": false,
					"id": 4,
					"creationDate": "2023-12-06T00:00:00Z",
					"value": null,
					"user": {
						"name": "Isaac Newton",
						"id": 7,
						"login": "newton",
						"email": "newton@ldap.forumsys.com"
					},
					"expirationDate": "2023-12-07T00:00:00Z"
				},
				"resourceId": 4,
				"changedProperties": [],
				"links": [
					{
						"rel": "self",
						"href": "http:\/\/localhost:8017\/api\/v2\/manager\/events\/393"
					},
					{
						"rel": "eventList",
						"href": "http:\/\/localhost:8017\/api\/v2\/manager\/events"
					}
				],
				"id": 393,
				"technology": "RDepot version: 2.5.1",
				"time": "2023-12-06T11:49:44Z",
				"eventType": "create",
				"user": {
					"name": "Isaac Newton",
					"id": 7,
					"login": "newton",
					"email": "newton@ldap.forumsys.com"
				},
				"resourceType": "ACCESS_TOKEN"
			},
			{
				"relatedResource": {
					"deleted": false,
					"name": "deactivated",
					"active": false,
					"id": 3,
					"creationDate": "2023-12-05T00:00:00Z",
					"value": null,
					"user": {
						"name": "Isaac Newton",
						"id": 7,
						"login": "newton",
						"email": "newton@ldap.forumsys.com"
					},
					"expirationDate": "2023-12-10T00:00:00Z"
				},
				"resourceId": 3,
				"changedProperties": [
					{
						"valueAfter": "false",
						"property": "active",
						"valueBefore": "true"
					}
				],
				"links": [
					{
						"rel": "self",
						"href": "http:\/\/localhost:8017\/api\/v2\/manager\/events\/392"
					},
					{
						"rel": "eventList",
						"href": "http:\/\/localhost:8017\/api\/v2\/manager\/events"
					}
				],
				"id": 392,
				"technology": "RDepot version: 2.5.1",
				"time": "2023-12-06T09:13:31Z",
				"eventType": "update",
				"user": {
					"name": "Isaac Newton",
					"id": 7,
					"login": "newton",
					"email": "newton@ldap.forumsys.com"
				},
				"resourceType": "ACCESS_TOKEN"
			},
			{
				"relatedResource": {
					"deleted": false,
					"name": "deactivated",
					"active": false,
					"id": 3,
					"creationDate": "2023-12-05T00:00:00Z",
					"value": null,
					"user": {
						"name": "Isaac Newton",
						"id": 7,
						"login": "newton",
						"email": "newton@ldap.forumsys.com"
					},
					"expirationDate": "2023-12-10T00:00:00Z"
				},
				"resourceId": 3,
				"changedProperties": [],
				"links": [
					{
						"rel": "self",
						"href": "http:\/\/localhost:8017\/api\/v2\/manager\/events\/391"
					},
					{
						"rel": "eventList",
						"href": "http:\/\/localhost:8017\/api\/v2\/manager\/events"
					}
				],
				"id": 391,
				"technology": "RDepot version: 2.5.1",
				"time": "2023-12-05T11:12:54Z",
				"eventType": "create",
				"user": {
					"name": "Isaac Newton",
					"id": 7,
					"login": "newton",
					"email": "newton@ldap.forumsys.com"
				},
				"resourceType": "ACCESS_TOKEN"
			},
			{
				"relatedResource": {
					"deleted": false,
					"name": "second",
					"active": true,
					"id": 2,
					"creationDate": "2023-12-04T00:00:00Z",
					"value": null,
					"user": {
						"name": "Isaac Newton",
						"id": 7,
						"login": "newton",
						"email": "newton@ldap.forumsys.com"
					},
					"expirationDate": "2024-12-04T00:00:00Z"
				},
				"resourceId": 2,
				"changedProperties": [],
				"links": [
					{
						"rel": "self",
						"href": "http:\/\/localhost:8017\/api\/v2\/manager\/events\/390"
					},
					{
						"rel": "eventList",
						"href": "http:\/\/localhost:8017\/api\/v2\/manager\/events"
					}
				],
				"id": 390,
				"technology": "RDepot version: 2.5.1",
				"time": "2023-12-04T11:12:25Z",
				"eventType": "create",
				"user": {
					"name": "Isaac Newton",
					"id": 7,
					"login": "newton",
					"email": "newton@ldap.forumsys.com"
				},
				"resourceType": "ACCESS_TOKEN"
			},
			{
				"relatedResource": {
					"deleted": false,
					"name": "try",
					"active": true,
					"id": 1,
					"creationDate": "2023-11-15T00:00:00Z",
					"value": null,
					"user": {
						"name": "Albert Einstein",
						"id": 4,
						"login": "einstein",
						"email": "einstein@ldap.forumsys.com"
					},
					"expirationDate": "2024-11-15T00:00:00Z"
				},
				"resourceId": 1,
				"changedProperties": [],
				"links": [
					{
						"rel": "self",
						"href": "http:\/\/localhost:8017\/api\/v2\/manager\/events\/389"
					},
					{
						"rel": "eventList",
						"href": "http:\/\/localhost:8017\/api\/v2\/manager\/events"
					}
				],
				"id": 389,
				"technology": "RDepot version: 2.5.1",
				"time": "2023-11-15T11:11:11Z",
				"eventType": "create",
				"user": {
					"name": "Albert Einstein",
					"id": 4,
					"login": "einstein",
					"email": "einstein@ldap.forumsys.com"
				},
				"resourceType": "ACCESS_TOKEN"
			},
			{
				"relatedResource": {
					"approver": null,
					"submitter": {
						"name": "Isaac Newton",
						"id": 7,
						"login": "newton",
						"email": "newton@ldap.forumsys.com"
					},
					"created": "2023-07-10T12:36:18Z",
					"changes": null,
					"id": 46,
					"state": "WAITING",
					"technology": "Python",
					"packageBag": {
						"deleted": false,
						"binary": false,
						"name": "requests",
						"active": false,
						"submission": {
							"id": 46,
							"state": "WAITING"
						},
						"links": [],
						"id": 46,
						"source": "\/opt\/rdepot\/new\/32578090\/requests-2.28.1.tar.gz",
						"technology": "Python",
						"repository": {
							"name": "testrepo8",
							"lastPublicationSuccessful": true,
							"id": 8,
							"published": true,
							"technology": "Python",
							"requiresAuthentication": true,
							"publicationUri": "http:\/\/localhost\/repo\/testrepo8"
						},
						"user": {
							"name": "Nikola Tesla",
							"id": 5,
							"login": "tesla",
							"email": "tesla@ldap.forumsys.com"
						},
						"version": "2.28.1"
					}
				},
				"resourceId": 46,
				"changedProperties": [],
				"links": [
					{
						"rel": "self",
						"href": "http:\/\/localhost:8017\/api\/v2\/manager\/events\/388"
					},
					{
						"rel": "eventList",
						"href": "http:\/\/localhost:8017\/api\/v2\/manager\/events"
					}
				],
				"id": 388,
				"technology": "RDepot version: 2.5.1",
				"time": "2023-07-10T12:36:18Z",
				"eventType": "upload",
				"user": {
					"name": "Isaac Newton",
					"id": 7,
					"login": "newton",
					"email": "newton@ldap.forumsys.com"
				},
				"resourceType": "SUBMISSION"
			},
			{
				"relatedResource": {
					"approver": null,
					"submitter": {
						"name": "Isaac Newton",
						"id": 7,
						"login": "newton",
						"email": "newton@ldap.forumsys.com"
					},
					"created": "2023-07-10T12:36:04Z",
					"changes": null,
					"id": 45,
					"state": "WAITING",
					"technology": "Python",
					"packageBag": {
						"deleted": false,
						"binary": false,
						"name": "requests",
						"active": false,
						"submission": {
							"id": 45,
							"state": "WAITING"
						},
						"links": [],
						"id": 45,
						"source": "\/opt\/rdepot\/new\/5533563\/requests-2.19.1.tar.gz",
						"technology": "Python",
						"repository": {
							"name": "testrepo8",
							"lastPublicationSuccessful": true,
							"id": 8,
							"published": true,
							"technology": "Python",
							"requiresAuthentication": true,
							"publicationUri": "http:\/\/localhost\/repo\/testrepo8"
						},
						"user": {
							"name": "Nikola Tesla",
							"id": 5,
							"login": "tesla",
							"email": "tesla@ldap.forumsys.com"
						},
						"version": "2.19.1"
					}
				},
				"resourceId": 45,
				"changedProperties": [],
				"links": [
					{
						"rel": "self",
						"href": "http:\/\/localhost:8017\/api\/v2\/manager\/events\/387"
					},
					{
						"rel": "eventList",
						"href": "http:\/\/localhost:8017\/api\/v2\/manager\/events"
					}
				],
				"id": 387,
				"technology": "RDepot version: 2.5.1",
				"time": "2023-07-10T12:36:04Z",
				"eventType": "upload",
				"user": {
					"name": "Isaac Newton",
					"id": 7,
					"login": "newton",
					"email": "newton@ldap.forumsys.com"
				},
				"resourceType": "SUBMISSION"
			},
			{
				"relatedResource": {
					"deleted": false,
					"id": 11,
					"packageName": "python-dateutil",
					"repository": {
						"name": "testrepo8",
						"lastPublicationSuccessful": true,
						"id": 8,
						"published": true,
						"technology": "Python",
						"requiresAuthentication": true,
						"publicationUri": "http:\/\/localhost\/repo\/testrepo8"
					},
					"user": {
						"name": "Galileo Galilei",
						"id": 6,
						"login": "galieleo",
						"email": "galieleo@ldap.forumsys.com"
					}
				},
				"resourceId": 11,
				"changedProperties": [],
				"links": [
					{
						"rel": "self",
						"href": "http:\/\/localhost:8017\/api\/v2\/manager\/events\/386"
					},
					{
						"rel": "eventList",
						"href": "http:\/\/localhost:8017\/api\/v2\/manager\/events"
					}
				],
				"id": 386,
				"technology": "RDepot version: 2.5.1",
				"time": "2023-07-10T12:35:21Z",
				"eventType": "create",
				"user": {
					"name": "Albert Einstein",
					"id": 4,
					"login": "einstein",
					"email": "einstein@ldap.forumsys.com"
				},
				"resourceType": "PACKAGE_MAINTAINER"
			},
			{
				"relatedResource": {
					"deleted": false,
					"id": 10,
					"packageName": "accelerated-numpy",
					"repository": {
						"name": "testrepo8",
						"lastPublicationSuccessful": true,
						"id": 8,
						"published": true,
						"technology": "Python",
						"requiresAuthentication": true,
						"publicationUri": "http:\/\/localhost\/repo\/testrepo8"
					},
					"user": {
						"name": "Galileo Galilei",
						"id": 6,
						"login": "galieleo",
						"email": "galieleo@ldap.forumsys.com"
					}
				},
				"resourceId": 10,
				"changedProperties": [],
				"links": [
					{
						"rel": "self",
						"href": "http:\/\/localhost:8017\/api\/v2\/manager\/events\/385"
					},
					{
						"rel": "eventList",
						"href": "http:\/\/localhost:8017\/api\/v2\/manager\/events"
					}
				],
				"id": 385,
				"technology": "RDepot version: 2.5.1",
				"time": "2023-07-10T12:35:08Z",
				"eventType": "create",
				"user": {
					"name": "Albert Einstein",
					"id": 4,
					"login": "einstein",
					"email": "einstein@ldap.forumsys.com"
				},
				"resourceType": "PACKAGE_MAINTAINER"
			},
			{
				"relatedResource": {
					"deleted": false,
					"id": 9,
					"packageName": "boto3",
					"repository": {
						"name": "testrepo8",
						"lastPublicationSuccessful": true,
						"id": 8,
						"published": true,
						"technology": "Python",
						"requiresAuthentication": true,
						"publicationUri": "http:\/\/localhost\/repo\/testrepo8"
					},
					"user": {
						"name": "Galileo Galilei",
						"id": 6,
						"login": "galieleo",
						"email": "galieleo@ldap.forumsys.com"
					}
				},
				"resourceId": 9,
				"changedProperties": [],
				"links": [
					{
						"rel": "self",
						"href": "http:\/\/localhost:8017\/api\/v2\/manager\/events\/384"
					},
					{
						"rel": "eventList",
						"href": "http:\/\/localhost:8017\/api\/v2\/manager\/events"
					}
				],
				"id": 384,
				"technology": "RDepot version: 2.5.1",
				"time": "2023-07-10T12:35:00Z",
				"eventType": "create",
				"user": {
					"name": "Albert Einstein",
					"id": 4,
					"login": "einstein",
					"email": "einstein@ldap.forumsys.com"
				},
				"resourceType": "PACKAGE_MAINTAINER"
			},
			{
				"relatedResource": {
					"deleted": false,
					"id": 8,
					"packageName": "pandas",
					"repository": {
						"name": "testrepo8",
						"lastPublicationSuccessful": true,
						"id": 8,
						"published": true,
						"technology": "Python",
						"requiresAuthentication": true,
						"publicationUri": "http:\/\/localhost\/repo\/testrepo8"
					},
					"user": {
						"name": "Local Admin User",
						"id": 8,
						"login": "admin",
						"email": "admin@localhost"
					}
				},
				"resourceId": 8,
				"changedProperties": [],
				"links": [
					{
						"rel": "self",
						"href": "http:\/\/localhost:8017\/api\/v2\/manager\/events\/383"
					},
					{
						"rel": "eventList",
						"href": "http:\/\/localhost:8017\/api\/v2\/manager\/events"
					}
				],
				"id": 383,
				"technology": "RDepot version: 2.5.1",
				"time": "2023-07-10T12:34:38Z",
				"eventType": "create",
				"user": {
					"name": "Albert Einstein",
					"id": 4,
					"login": "einstein",
					"email": "einstein@ldap.forumsys.com"
				},
				"resourceType": "PACKAGE_MAINTAINER"
			},
			{
				"relatedResource": {
					"approver": {
						"name": "Albert Einstein",
						"id": 4,
						"login": "einstein",
						"email": "einstein@ldap.forumsys.com"
					},
					"submitter": {
						"name": "Albert Einstein",
						"id": 4,
						"login": "einstein",
						"email": "einstein@ldap.forumsys.com"
					},
					"created": "2023-07-10T12:34:02Z",
					"changes": null,
					"id": 44,
					"state": "ACCEPTED",
					"technology": "Python",
					"packageBag": {
						"deleted": false,
						"binary": false,
						"name": "python-dateutil",
						"active": true,
						"submission": {
							"id": 44,
							"state": "ACCEPTED"
						},
						"links": [],
						"id": 44,
						"source": "\/opt\/rdepot\/repositories\/8\/31719300\/python-dateutil-2.8.1.tar.gz",
						"technology": "Python",
						"repository": {
							"name": "testrepo8",
							"lastPublicationSuccessful": true,
							"id": 8,
							"published": true,
							"technology": "Python",
							"requiresAuthentication": true,
							"publicationUri": "http:\/\/localhost\/repo\/testrepo8"
						},
						"user": {
							"name": "Galileo Galilei",
							"id": 6,
							"login": "galieleo",
							"email": "galieleo@ldap.forumsys.com"
						},
						"version": "2.8.1"
					}
				},
				"resourceId": 44,
				"changedProperties": [],
				"links": [
					{
						"rel": "self",
						"href": "http:\/\/localhost:8017\/api\/v2\/manager\/events\/382"
					},
					{
						"rel": "eventList",
						"href": "http:\/\/localhost:8017\/api\/v2\/manager\/events"
					}
				],
				"id": 382,
				"technology": "RDepot version: 2.5.1",
				"time": "2023-07-10T12:34:02Z",
				"eventType": "upload",
				"user": {
					"name": "Albert Einstein",
					"id": 4,
					"login": "einstein",
					"email": "einstein@ldap.forumsys.com"
				},
				"resourceType": "SUBMISSION"
			},
			{
				"relatedResource": {
					"approver": {
						"name": "Albert Einstein",
						"id": 4,
						"login": "einstein",
						"email": "einstein@ldap.forumsys.com"
					},
					"submitter": {
						"name": "Albert Einstein",
						"id": 4,
						"login": "einstein",
						"email": "einstein@ldap.forumsys.com"
					},
					"created": "2023-07-10T12:33:27Z",
					"changes": null,
					"id": 43,
					"state": "ACCEPTED",
					"technology": "Python",
					"packageBag": {
						"deleted": false,
						"binary": false,
						"name": "accelerated-numpy",
						"active": true,
						"submission": {
							"id": 43,
							"state": "ACCEPTED"
						},
						"links": [],
						"id": 43,
						"source": "\/opt\/rdepot\/repositories\/8\/25558329\/accelerated-numpy-0.1.0.tar.gz",
						"technology": "Python",
						"repository": {
							"name": "testrepo8",
							"lastPublicationSuccessful": true,
							"id": 8,
							"published": true,
							"technology": "Python",
							"requiresAuthentication": true,
							"publicationUri": "http:\/\/localhost\/repo\/testrepo8"
						},
						"user": {
							"name": "Galileo Galilei",
							"id": 6,
							"login": "galieleo",
							"email": "galieleo@ldap.forumsys.com"
						},
						"version": "0.1.0"
					}
				},
				"resourceId": 43,
				"changedProperties": [],
				"links": [
					{
						"rel": "self",
						"href": "http:\/\/localhost:8017\/api\/v2\/manager\/events\/381"
					},
					{
						"rel": "eventList",
						"href": "http:\/\/localhost:8017\/api\/v2\/manager\/events"
					}
				],
				"id": 381,
				"technology": "RDepot version: 2.5.1",
				"time": "2023-07-10T12:33:27Z",
				"eventType": "upload",
				"user": {
					"name": "Albert Einstein",
					"id": 4,
					"login": "einstein",
					"email": "einstein@ldap.forumsys.com"
				},
				"resourceType": "SUBMISSION"
			},
			{
				"relatedResource": {
					"approver": {
						"name": "Albert Einstein",
						"id": 4,
						"login": "einstein",
						"email": "einstein@ldap.forumsys.com"
					},
					"submitter": {
						"name": "Albert Einstein",
						"id": 4,
						"login": "einstein",
						"email": "einstein@ldap.forumsys.com"
					},
					"created": "2023-07-10T12:32:32Z",
					"changes": null,
					"id": 42,
					"state": "ACCEPTED",
					"technology": "Python",
					"packageBag": {
						"deleted": true,
						"binary": false,
						"name": "boto3",
						"active": true,
						"submission": {
							"id": 42,
							"state": "ACCEPTED"
						},
						"links": [],
						"id": 42,
						"source": "\/opt\/rdepot\/repositories\/8\/55941618\/boto3-1.26.156.tar.gz",
						"technology": "Python",
						"repository": {
							"name": "testrepo8",
							"lastPublicationSuccessful": true,
							"id": 8,
							"published": true,
							"technology": "Python",
							"requiresAuthentication": true,
							"publicationUri": "http:\/\/localhost\/repo\/testrepo8"
						},
						"user": {
							"name": "Galileo Galilei",
							"id": 6,
							"login": "galieleo",
							"email": "galieleo@ldap.forumsys.com"
						},
						"version": "1.26.156"
					}
				},
				"resourceId": 42,
				"changedProperties": [],
				"links": [
					{
						"rel": "self",
						"href": "http:\/\/localhost:8017\/api\/v2\/manager\/events\/380"
					},
					{
						"rel": "eventList",
						"href": "http:\/\/localhost:8017\/api\/v2\/manager\/events"
					}
				],
				"id": 380,
				"technology": "RDepot version: 2.5.1",
				"time": "2023-07-10T12:32:32Z",
				"eventType": "upload",
				"user": {
					"name": "Albert Einstein",
					"id": 4,
					"login": "einstein",
					"email": "einstein@ldap.forumsys.com"
				},
				"resourceType": "SUBMISSION"
			}
		]
	},
	"messageCode": "success.request.processed",
	"message": "Your request has been processed successfully.",
	"status": "SUCCESS"
}
