{"status":"success","code":200,"message":"Your request has been processed successfully.","messageCode":"success.request.processed","data":{"links":[{"rel":"first","href":"http://localhost:8017/api/v2/manager/events?page=0&size=20&sort=date,time,desc"},{"rel":"self","href":"http://localhost:8017/api/v2/manager/events?page=0&size=20&sort=date,time,desc"},{"rel":"next","href":"http://localhost:8017/api/v2/manager/events?page=1&size=20&sort=date,time,desc"},{"rel":"last","href":"http://localhost:8017/api/v2/manager/events?page=18&size=20&sort=date,time,desc"}],"content":[{"id":365,"technology":"RDepot version: 1.7.9","time":"2022-09-28T11:33:54.153","user":{"id":4,"name":"Albert Einstein","login":"einstein"},"eventType":"update","description":null,"resourceId":7,"resourceType":"USER","resourceDescription":"User (id: 7, login: \"newton\", email: \"newton@ldap.forumsys.com\", role: \"packagemaintainer\")","changedProperties":[{"property":"role","valueBefore":"user","valueAfter":"packagemaintainer"}],"links":[{"rel":"eventList","href":"http://localhost:8017/api/v2/manager/events"}]},{"id":364,"technology":"RDepot version: 1.7.9","time":"2022-09-09T07:18:28.512","user":{"id":4,"name":"Albert Einstein","login":"einstein"},"eventType":"create","description":null,"resourceId":5,"resourceType":"PACKAGE_MAINTAINER","resourceDescription":"Package Maintainer (id: 5, user: \"galieleo\", package: \"AnaCoDa\", repository: \"testrepo4\")","changedProperties":[],"links":[{"rel":"eventList","href":"http://localhost:8017/api/v2/manager/events"}]},{"id":78,"technology":"RDepot version: 1.7.9","time":"2020-08-25T12:35:38.788","user":{"id":8,"name":"Local Admin User","login":"admin"},"eventType":"update","description":null,"resourceId":10,"resourceType":"USER","resourceDescription":"User (id: 10, login: \"tarski\", email: \"tarski@localhost\", role: \"user\")","changedProperties":[{"property":"last logged in","valueBefore":"null","valueAfter":"Tue Aug 25 12:35:38 GMT 2020"}],"links":[{"rel":"eventList","href":"http://localhost:8017/api/v2/manager/events"}]},{"id":77,"technology":"RDepot version: 1.7.9","time":"2020-08-25T12:35:38.689","user":{"id":8,"name":"Local Admin User","login":"admin"},"eventType":"create","description":null,"resourceId":10,"resourceType":"USER","resourceDescription":"User (id: 10, login: \"tarski\", email: \"tarski@localhost\", role: \"user\")","changedProperties":[{"property":"created","valueBefore":"","valueAfter":""}],"links":[{"rel":"eventList","href":"http://localhost:8017/api/v2/manager/events"}]},{"id":76,"technology":"RDepot version: 1.7.9","time":"2020-08-20T09:59:21.132","user":{"id":4,"name":"Albert Einstein","login":"einstein"},"eventType":"update","description":null,"resourceId":9,"resourceType":"USER","resourceDescription":"User (id: 9, login: \"doe\", email: \"doe@localhost\", role: \"user\")","changedProperties":[{"property":"active","valueBefore":"true","valueAfter":"false"}],"links":[{"rel":"eventList","href":"http://localhost:8017/api/v2/manager/events"}]},{"id":75,"technology":"RDepot version: 1.7.9","time":"2020-08-20T09:59:08.9","user":{"id":8,"name":"Local Admin User","login":"admin"},"eventType":"update","description":null,"resourceId":4,"resourceType":"USER","resourceDescription":"User (id: 4, login: \"einstein\", email: \"einstein@ldap.forumsys.com\", role: \"admin\")","changedProperties":[{"property":"last logged in","valueBefore":"2020-03-28 00:00:00.0","valueAfter":"Thu Aug 20 09:59:08 GMT 2020"}],"links":[{"rel":"eventList","href":"http://localhost:8017/api/v2/manager/events"}]},{"id":74,"technology":"RDepot version: 1.7.9","time":"2020-08-20T09:58:52.09","user":{"id":8,"name":"Local Admin User","login":"admin"},"eventType":"update","description":null,"resourceId":9,"resourceType":"USER","resourceDescription":"User (id: 9, login: \"doe\", email: \"doe@localhost\", role: \"user\")","changedProperties":[{"property":"last logged in","valueBefore":"null","valueAfter":"Thu Aug 20 09:58:52 GMT 2020"}],"links":[{"rel":"eventList","href":"http://localhost:8017/api/v2/manager/events"}]},{"id":73,"technology":"RDepot version: 1.7.9","time":"2020-08-20T09:58:51.784","user":{"id":8,"name":"Local Admin User","login":"admin"},"eventType":"create","description":null,"resourceId":9,"resourceType":"USER","resourceDescription":"User (id: 9, login: \"doe\", email: \"doe@localhost\", role: \"user\")","changedProperties":[{"property":"created","valueBefore":"","valueAfter":""}],"links":[{"rel":"eventList","href":"http://localhost:8017/api/v2/manager/events"}]},{"id":183,"technology":"RDepot version: 1.7.9","time":"2020-03-29T10:43:10.333","user":{"id":4,"name":"Albert Einstein","login":"einstein"},"eventType":"delete","description":null,"resourceId":4,"resourceType":"PACKAGE_MAINTAINER","resourceDescription":"Package Maintainer (id: 4, user: \"galieleo\", package: \"bea.R\", repository: \"testrepo1\")","changedProperties":[{"property":"deleted","valueBefore":"","valueAfter":""}],"links":[{"rel":"eventList","href":"http://localhost:8017/api/v2/manager/events"}]},{"id":359,"technology":"RDepot version: 1.7.9","time":"2020-03-29T10:43:10.123","user":{"id":4,"name":"Albert Einstein","login":"einstein"},"eventType":"update","description":null,"resourceId":2,"resourceType":"REPOSITORY","resourceDescription":"R Repository \"testrepo1\"","changedProperties":[{"property":"version","valueBefore":"30","valueAfter":"31"}],"links":[{"rel":"eventList","href":"http://localhost:8017/api/v2/manager/events"}]},{"id":358,"technology":"RDepot version: 1.7.9","time":"2020-03-29T10:43:10.117","user":{"id":4,"name":"Albert Einstein","login":"einstein"},"eventType":"update","description":null,"resourceId":2,"resourceType":"REPOSITORY","resourceDescription":"R Repository \"testrepo1\"","changedProperties":[{"property":"published","valueBefore":"","valueAfter":""}],"links":[{"rel":"eventList","href":"http://localhost:8017/api/v2/manager/events"}]},{"id":357,"technology":"RDepot version: 1.7.9","time":"2020-03-29T10:43:10.091","user":{"id":4,"name":"Albert Einstein","login":"einstein"},"eventType":"update","description":null,"resourceId":2,"resourceType":"REPOSITORY","resourceDescription":"R Repository \"testrepo1\"","changedProperties":[{"property":"version","valueBefore":"29","valueAfter":"30"}],"links":[{"rel":"eventList","href":"http://localhost:8017/api/v2/manager/events"}]},{"id":178,"technology":"RDepot version: 1.7.9","time":"2020-03-29T10:43:10.081","user":{"id":4,"name":"Albert Einstein","login":"einstein"},"eventType":"update","description":null,"resourceId":15,"resourceType":"PACKAGE","resourceDescription":"Provides an R interface for the Bureau of Economic Analysis (BEA)","changedProperties":[{"property":"maintainer","valueBefore":"5","valueAfter":"6"}],"links":[{"rel":"eventList","href":"http://localhost:8017/api/v2/manager/events"}]},{"id":182,"technology":"RDepot version: 1.7.9","time":"2020-03-29T10:43:05.991","user":{"id":4,"name":"Albert Einstein","login":"einstein"},"eventType":"create","description":null,"resourceId":4,"resourceType":"PACKAGE_MAINTAINER","resourceDescription":"Package Maintainer (id: 4, user: \"galieleo\", package: \"bea.R\", repository: \"testrepo1\")","changedProperties":[{"property":"created","valueBefore":"","valueAfter":""}],"links":[{"rel":"eventList","href":"http://localhost:8017/api/v2/manager/events"}]},{"id":356,"technology":"RDepot version: 1.7.9","time":"2020-03-29T10:43:05.331","user":{"id":4,"name":"Albert Einstein","login":"einstein"},"eventType":"update","description":null,"resourceId":2,"resourceType":"REPOSITORY","resourceDescription":"R Repository \"testrepo1\"","changedProperties":[{"property":"version","valueBefore":"28","valueAfter":"29"}],"links":[{"rel":"eventList","href":"http://localhost:8017/api/v2/manager/events"}]},{"id":355,"technology":"RDepot version: 1.7.9","time":"2020-03-29T10:43:05.321","user":{"id":4,"name":"Albert Einstein","login":"einstein"},"eventType":"update","description":null,"resourceId":2,"resourceType":"REPOSITORY","resourceDescription":"R Repository \"testrepo1\"","changedProperties":[{"property":"published","valueBefore":"","valueAfter":""}],"links":[{"rel":"eventList","href":"http://localhost:8017/api/v2/manager/events"}]},{"id":354,"technology":"RDepot version: 1.7.9","time":"2020-03-29T10:43:05.272","user":{"id":4,"name":"Albert Einstein","login":"einstein"},"eventType":"update","description":null,"resourceId":2,"resourceType":"REPOSITORY","resourceDescription":"R Repository \"testrepo1\"","changedProperties":[{"property":"version","valueBefore":"27","valueAfter":"28"}],"links":[{"rel":"eventList","href":"http://localhost:8017/api/v2/manager/events"}]},{"id":177,"technology":"RDepot version: 1.7.9","time":"2020-03-29T10:43:05.243","user":{"id":4,"name":"Albert Einstein","login":"einstein"},"eventType":"update","description":null,"resourceId":15,"resourceType":"PACKAGE","resourceDescription":"Provides an R interface for the Bureau of Economic Analysis (BEA)","changedProperties":[{"property":"maintainer","valueBefore":"6","valueAfter":"5"}],"links":[{"rel":"eventList","href":"http://localhost:8017/api/v2/manager/events"}]},{"id":72,"technology":"RDepot version: 1.7.9","time":"2020-03-29T10:42:45.4","user":{"id":8,"name":"Local Admin User","login":"admin"},"eventType":"update","description":null,"resourceId":5,"resourceType":"USER","resourceDescription":"User (id: 5, login: \"tesla\", email: \"tesla@ldap.forumsys.com\", role: \"repositorymaintainer\")","changedProperties":[{"property":"last logged in","valueBefore":"2020-03-28 00:00:00.0","valueAfter":"Sun Mar 29 10:42:45 UTC 2020"}],"links":[{"rel":"eventList","href":"http://localhost:8017/api/v2/manager/events"}]},{"id":353,"technology":"RDepot version: 1.7.9","time":"2020-03-28T20:14:45.738","user":{"id":6,"name":"Galileo Galilei","login":"galieleo"},"eventType":"update","description":null,"resourceId":5,"resourceType":"REPOSITORY","resourceDescription":"R Repository \"testrepo4\"","changedProperties":[{"property":"submitted","valueBefore":"","valueAfter":"31"}],"links":[{"rel":"eventList","href":"http://localhost:8017/api/v2/manager/events"}]}],"page":{"size":20,"totalElements":365,"totalPages":19,"number":0}}}